%YAML 1.1
%TAG !u! tag:unity3d.com,2011:
--- !u!1 &4537135605510632751
GameObject:
  m_ObjectHideFlags: 0
  m_CorrespondingSourceObject: {fileID: 0}
  m_PrefabInstance: {fileID: 0}
  m_PrefabAsset: {fileID: 0}
  serializedVersion: 6
  m_Component:
  - component: {fileID: 6221895104025639518}
  - component: {fileID: 6225678721109729185}
  m_Layer: 0
  m_Name: Main Palette
  m_TagString: Untagged
  m_Icon: {fileID: 0}
  m_NavMeshLayer: 0
  m_StaticEditorFlags: 0
  m_IsActive: 1
--- !u!4 &6221895104025639518
Transform:
  m_ObjectHideFlags: 0
  m_CorrespondingSourceObject: {fileID: 0}
  m_PrefabInstance: {fileID: 0}
  m_PrefabAsset: {fileID: 0}
  m_GameObject: {fileID: 4537135605510632751}
  serializedVersion: 2
  m_LocalRotation: {x: 0, y: 0, z: 0, w: 1}
  m_LocalPosition: {x: 0, y: 0, z: 0}
  m_LocalScale: {x: 1, y: 1, z: 1}
  m_ConstrainProportionsScale: 0
  m_Children:
  - {fileID: 8179649087914337028}
  m_Father: {fileID: 0}
  m_LocalEulerAnglesHint: {x: 0, y: 0, z: 0}
--- !u!156049354 &6225678721109729185
Grid:
  m_ObjectHideFlags: 0
  m_CorrespondingSourceObject: {fileID: 0}
  m_PrefabInstance: {fileID: 0}
  m_PrefabAsset: {fileID: 0}
  m_GameObject: {fileID: 4537135605510632751}
  m_Enabled: 1
  m_CellSize: {x: 1, y: 1, z: 0}
  m_CellGap: {x: 0, y: 0, z: 0}
  m_CellLayout: 0
  m_CellSwizzle: 0
--- !u!1 &4853522201198824645
GameObject:
  m_ObjectHideFlags: 0
  m_CorrespondingSourceObject: {fileID: 0}
  m_PrefabInstance: {fileID: 0}
  m_PrefabAsset: {fileID: 0}
  serializedVersion: 6
  m_Component:
  - component: {fileID: 8179649087914337028}
  - component: {fileID: 1936443720655150455}
  - component: {fileID: 1107460217800903839}
  m_Layer: 0
  m_Name: Layer1
  m_TagString: Untagged
  m_Icon: {fileID: 0}
  m_NavMeshLayer: 0
  m_StaticEditorFlags: 0
  m_IsActive: 1
--- !u!4 &8179649087914337028
Transform:
  m_ObjectHideFlags: 0
  m_CorrespondingSourceObject: {fileID: 0}
  m_PrefabInstance: {fileID: 0}
  m_PrefabAsset: {fileID: 0}
  m_GameObject: {fileID: 4853522201198824645}
  serializedVersion: 2
  m_LocalRotation: {x: -0, y: -0, z: -0, w: 1}
  m_LocalPosition: {x: 0, y: 0, z: 0}
  m_LocalScale: {x: 1, y: 1, z: 1}
  m_ConstrainProportionsScale: 0
  m_Children: []
  m_Father: {fileID: 6221895104025639518}
  m_LocalEulerAnglesHint: {x: 0, y: 0, z: 0}
--- !u!1839735485 &1936443720655150455
Tilemap:
  m_ObjectHideFlags: 0
  m_CorrespondingSourceObject: {fileID: 0}
  m_PrefabInstance: {fileID: 0}
  m_PrefabAsset: {fileID: 0}
  m_GameObject: {fileID: 4853522201198824645}
  m_Enabled: 1
  m_Tiles:
  - first: {x: 0, y: -20, z: 0}
    second:
      serializedVersion: 2
      m_TileIndex: 120
      m_TileSpriteIndex: 120
      m_TileMatrixIndex: 0
      m_TileColorIndex: 0
      m_TileObjectToInstantiateIndex: 65535
      dummyAlignment: 0
      m_AllTileFlags: 1073741825
  - first: {x: 1, y: -20, z: 0}
    second:
      serializedVersion: 2
      m_TileIndex: 121
      m_TileSpriteIndex: 121
      m_TileMatrixIndex: 0
      m_TileColorIndex: 0
      m_TileObjectToInstantiateIndex: 65535
      dummyAlignment: 0
      m_AllTileFlags: 1073741825
  - first: {x: 6, y: -20, z: 0}
    second:
      serializedVersion: 2
      m_TileIndex: 122
      m_TileSpriteIndex: 122
      m_TileMatrixIndex: 0
      m_TileColorIndex: 0
      m_TileObjectToInstantiateIndex: 65535
      dummyAlignment: 0
      m_AllTileFlags: 1073741825
  - first: {x: 7, y: -20, z: 0}
    second:
      serializedVersion: 2
      m_TileIndex: 123
      m_TileSpriteIndex: 123
      m_TileMatrixIndex: 0
      m_TileColorIndex: 0
      m_TileObjectToInstantiateIndex: 65535
      dummyAlignment: 0
      m_AllTileFlags: 1073741825
  - first: {x: 8, y: -20, z: 0}
    second:
      serializedVersion: 2
      m_TileIndex: 124
      m_TileSpriteIndex: 124
      m_TileMatrixIndex: 0
      m_TileColorIndex: 0
      m_TileObjectToInstantiateIndex: 65535
      dummyAlignment: 0
      m_AllTileFlags: 1073741825
  - first: {x: 10, y: -20, z: 0}
    second:
      serializedVersion: 2
      m_TileIndex: 125
      m_TileSpriteIndex: 125
      m_TileMatrixIndex: 0
      m_TileColorIndex: 0
      m_TileObjectToInstantiateIndex: 65535
      dummyAlignment: 0
      m_AllTileFlags: 1073741825
  - first: {x: 11, y: -20, z: 0}
    second:
      serializedVersion: 2
      m_TileIndex: 126
      m_TileSpriteIndex: 126
      m_TileMatrixIndex: 0
      m_TileColorIndex: 0
      m_TileObjectToInstantiateIndex: 65535
      dummyAlignment: 0
      m_AllTileFlags: 1073741825
  - first: {x: 12, y: -20, z: 0}
    second:
      serializedVersion: 2
      m_TileIndex: 127
      m_TileSpriteIndex: 127
      m_TileMatrixIndex: 0
      m_TileColorIndex: 0
      m_TileObjectToInstantiateIndex: 65535
      dummyAlignment: 0
      m_AllTileFlags: 1073741825
  - first: {x: -2, y: -19, z: 0}
    second:
      serializedVersion: 2
      m_TileIndex: 110
      m_TileSpriteIndex: 110
      m_TileMatrixIndex: 0
      m_TileColorIndex: 0
      m_TileObjectToInstantiateIndex: 65535
      dummyAlignment: 0
      m_AllTileFlags: 1073741825
  - first: {x: 0, y: -19, z: 0}
    second:
      serializedVersion: 2
      m_TileIndex: 111
      m_TileSpriteIndex: 111
      m_TileMatrixIndex: 0
      m_TileColorIndex: 0
      m_TileObjectToInstantiateIndex: 65535
      dummyAlignment: 0
      m_AllTileFlags: 1073741825
  - first: {x: 1, y: -19, z: 0}
    second:
      serializedVersion: 2
      m_TileIndex: 112
      m_TileSpriteIndex: 112
      m_TileMatrixIndex: 0
      m_TileColorIndex: 0
      m_TileObjectToInstantiateIndex: 65535
      dummyAlignment: 0
      m_AllTileFlags: 1073741825
  - first: {x: 6, y: -19, z: 0}
    second:
      serializedVersion: 2
      m_TileIndex: 113
      m_TileSpriteIndex: 113
      m_TileMatrixIndex: 0
      m_TileColorIndex: 0
      m_TileObjectToInstantiateIndex: 65535
      dummyAlignment: 0
      m_AllTileFlags: 1073741825
  - first: {x: 7, y: -19, z: 0}
    second:
      serializedVersion: 2
      m_TileIndex: 114
      m_TileSpriteIndex: 114
      m_TileMatrixIndex: 0
      m_TileColorIndex: 0
      m_TileObjectToInstantiateIndex: 65535
      dummyAlignment: 0
      m_AllTileFlags: 1073741825
  - first: {x: 8, y: -19, z: 0}
    second:
      serializedVersion: 2
      m_TileIndex: 115
      m_TileSpriteIndex: 115
      m_TileMatrixIndex: 0
      m_TileColorIndex: 0
      m_TileObjectToInstantiateIndex: 65535
      dummyAlignment: 0
      m_AllTileFlags: 1073741825
  - first: {x: 10, y: -19, z: 0}
    second:
      serializedVersion: 2
      m_TileIndex: 116
      m_TileSpriteIndex: 116
      m_TileMatrixIndex: 0
      m_TileColorIndex: 0
      m_TileObjectToInstantiateIndex: 65535
      dummyAlignment: 0
      m_AllTileFlags: 1073741825
  - first: {x: 11, y: -19, z: 0}
    second:
      serializedVersion: 2
      m_TileIndex: 117
      m_TileSpriteIndex: 117
      m_TileMatrixIndex: 0
      m_TileColorIndex: 0
      m_TileObjectToInstantiateIndex: 65535
      dummyAlignment: 0
      m_AllTileFlags: 1073741825
  - first: {x: 12, y: -19, z: 0}
    second:
      serializedVersion: 2
      m_TileIndex: 118
      m_TileSpriteIndex: 118
      m_TileMatrixIndex: 0
      m_TileColorIndex: 0
      m_TileObjectToInstantiateIndex: 65535
      dummyAlignment: 0
      m_AllTileFlags: 1073741825
  - first: {x: 14, y: -19, z: 0}
    second:
      serializedVersion: 2
      m_TileIndex: 119
      m_TileSpriteIndex: 119
      m_TileMatrixIndex: 0
      m_TileColorIndex: 0
      m_TileObjectToInstantiateIndex: 65535
      dummyAlignment: 0
      m_AllTileFlags: 1073741825
  - first: {x: -2, y: -17, z: 0}
    second:
      serializedVersion: 2
      m_TileIndex: 98
      m_TileSpriteIndex: 98
      m_TileMatrixIndex: 0
      m_TileColorIndex: 0
      m_TileObjectToInstantiateIndex: 65535
      dummyAlignment: 0
      m_AllTileFlags: 1073741825
  - first: {x: -1, y: -17, z: 0}
    second:
      serializedVersion: 2
      m_TileIndex: 99
      m_TileSpriteIndex: 99
      m_TileMatrixIndex: 0
      m_TileColorIndex: 0
      m_TileObjectToInstantiateIndex: 65535
      dummyAlignment: 0
      m_AllTileFlags: 1073741825
  - first: {x: 1, y: -17, z: 0}
    second:
      serializedVersion: 2
      m_TileIndex: 100
      m_TileSpriteIndex: 100
      m_TileMatrixIndex: 0
      m_TileColorIndex: 0
      m_TileObjectToInstantiateIndex: 65535
      dummyAlignment: 0
      m_AllTileFlags: 1073741825
  - first: {x: 2, y: -17, z: 0}
    second:
      serializedVersion: 2
      m_TileIndex: 101
      m_TileSpriteIndex: 101
      m_TileMatrixIndex: 0
      m_TileColorIndex: 0
      m_TileObjectToInstantiateIndex: 65535
      dummyAlignment: 0
      m_AllTileFlags: 1073741825
  - first: {x: 7, y: -17, z: 0}
    second:
      serializedVersion: 2
      m_TileIndex: 102
      m_TileSpriteIndex: 102
      m_TileMatrixIndex: 0
      m_TileColorIndex: 0
      m_TileObjectToInstantiateIndex: 65535
      dummyAlignment: 0
      m_AllTileFlags: 1073741825
  - first: {x: 8, y: -17, z: 0}
    second:
      serializedVersion: 2
      m_TileIndex: 103
      m_TileSpriteIndex: 103
      m_TileMatrixIndex: 0
      m_TileColorIndex: 0
      m_TileObjectToInstantiateIndex: 65535
      dummyAlignment: 0
      m_AllTileFlags: 1073741825
  - first: {x: 9, y: -17, z: 0}
    second:
      serializedVersion: 2
      m_TileIndex: 104
      m_TileSpriteIndex: 104
      m_TileMatrixIndex: 0
      m_TileColorIndex: 0
      m_TileObjectToInstantiateIndex: 65535
      dummyAlignment: 0
      m_AllTileFlags: 1073741825
  - first: {x: 11, y: -17, z: 0}
    second:
      serializedVersion: 2
      m_TileIndex: 105
      m_TileSpriteIndex: 105
      m_TileMatrixIndex: 0
      m_TileColorIndex: 0
      m_TileObjectToInstantiateIndex: 65535
      dummyAlignment: 0
      m_AllTileFlags: 1073741825
  - first: {x: 12, y: -17, z: 0}
    second:
      serializedVersion: 2
      m_TileIndex: 106
      m_TileSpriteIndex: 106
      m_TileMatrixIndex: 0
      m_TileColorIndex: 0
      m_TileObjectToInstantiateIndex: 65535
      dummyAlignment: 0
      m_AllTileFlags: 1073741825
  - first: {x: 14, y: -17, z: 0}
    second:
      serializedVersion: 2
      m_TileIndex: 107
      m_TileSpriteIndex: 107
      m_TileMatrixIndex: 0
      m_TileColorIndex: 0
      m_TileObjectToInstantiateIndex: 65535
      dummyAlignment: 0
      m_AllTileFlags: 1073741825
  - first: {x: 16, y: -17, z: 0}
    second:
      serializedVersion: 2
      m_TileIndex: 108
      m_TileSpriteIndex: 108
      m_TileMatrixIndex: 0
      m_TileColorIndex: 0
      m_TileObjectToInstantiateIndex: 65535
      dummyAlignment: 0
      m_AllTileFlags: 1073741825
  - first: {x: 18, y: -17, z: 0}
    second:
      serializedVersion: 2
      m_TileIndex: 109
      m_TileSpriteIndex: 109
      m_TileMatrixIndex: 0
      m_TileColorIndex: 0
      m_TileObjectToInstantiateIndex: 65535
      dummyAlignment: 0
      m_AllTileFlags: 1073741825
  - first: {x: -2, y: -16, z: 0}
    second:
      serializedVersion: 2
      m_TileIndex: 91
      m_TileSpriteIndex: 91
      m_TileMatrixIndex: 0
      m_TileColorIndex: 0
      m_TileObjectToInstantiateIndex: 65535
      dummyAlignment: 0
      m_AllTileFlags: 1073741825
  - first: {x: -1, y: -16, z: 0}
    second:
      serializedVersion: 2
      m_TileIndex: 92
      m_TileSpriteIndex: 92
      m_TileMatrixIndex: 0
      m_TileColorIndex: 0
      m_TileObjectToInstantiateIndex: 65535
      dummyAlignment: 0
      m_AllTileFlags: 1073741825
  - first: {x: 1, y: -16, z: 0}
    second:
      serializedVersion: 2
      m_TileIndex: 93
      m_TileSpriteIndex: 93
      m_TileMatrixIndex: 0
      m_TileColorIndex: 0
      m_TileObjectToInstantiateIndex: 65535
      dummyAlignment: 0
      m_AllTileFlags: 1073741825
  - first: {x: 2, y: -16, z: 0}
    second:
      serializedVersion: 2
      m_TileIndex: 94
      m_TileSpriteIndex: 94
      m_TileMatrixIndex: 0
      m_TileColorIndex: 0
      m_TileObjectToInstantiateIndex: 65535
      dummyAlignment: 0
      m_AllTileFlags: 1073741825
  - first: {x: 8, y: -16, z: 0}
    second:
      serializedVersion: 2
      m_TileIndex: 95
      m_TileSpriteIndex: 95
      m_TileMatrixIndex: 0
      m_TileColorIndex: 0
      m_TileObjectToInstantiateIndex: 65535
      dummyAlignment: 0
      m_AllTileFlags: 1073741825
  - first: {x: 11, y: -16, z: 0}
    second:
      serializedVersion: 2
      m_TileIndex: 96
      m_TileSpriteIndex: 96
      m_TileMatrixIndex: 0
      m_TileColorIndex: 0
      m_TileObjectToInstantiateIndex: 65535
      dummyAlignment: 0
      m_AllTileFlags: 1073741825
  - first: {x: 12, y: -16, z: 0}
    second:
      serializedVersion: 2
      m_TileIndex: 97
      m_TileSpriteIndex: 97
      m_TileMatrixIndex: 0
      m_TileColorIndex: 0
      m_TileObjectToInstantiateIndex: 65535
      dummyAlignment: 0
      m_AllTileFlags: 1073741825
  - first: {x: -1, y: -15, z: 0}
    second:
      serializedVersion: 2
      m_TileIndex: 83
      m_TileSpriteIndex: 83
      m_TileMatrixIndex: 0
      m_TileColorIndex: 0
      m_TileObjectToInstantiateIndex: 65535
      dummyAlignment: 0
      m_AllTileFlags: 1073741825
  - first: {x: 1, y: -15, z: 0}
    second:
      serializedVersion: 2
      m_TileIndex: 84
      m_TileSpriteIndex: 84
      m_TileMatrixIndex: 0
      m_TileColorIndex: 0
      m_TileObjectToInstantiateIndex: 65535
      dummyAlignment: 0
      m_AllTileFlags: 1073741825
  - first: {x: 8, y: -15, z: 0}
    second:
      serializedVersion: 2
      m_TileIndex: 85
      m_TileSpriteIndex: 85
      m_TileMatrixIndex: 0
      m_TileColorIndex: 0
      m_TileObjectToInstantiateIndex: 65535
      dummyAlignment: 0
      m_AllTileFlags: 1073741825
  - first: {x: 11, y: -15, z: 0}
    second:
      serializedVersion: 2
      m_TileIndex: 86
      m_TileSpriteIndex: 86
      m_TileMatrixIndex: 0
      m_TileColorIndex: 0
      m_TileObjectToInstantiateIndex: 65535
      dummyAlignment: 0
      m_AllTileFlags: 1073741825
  - first: {x: 12, y: -15, z: 0}
    second:
      serializedVersion: 2
      m_TileIndex: 87
      m_TileSpriteIndex: 87
      m_TileMatrixIndex: 0
      m_TileColorIndex: 0
      m_TileObjectToInstantiateIndex: 65535
      dummyAlignment: 0
      m_AllTileFlags: 1073741825
  - first: {x: 14, y: -15, z: 0}
    second:
      serializedVersion: 2
      m_TileIndex: 88
      m_TileSpriteIndex: 88
      m_TileMatrixIndex: 0
      m_TileColorIndex: 0
      m_TileObjectToInstantiateIndex: 65535
      dummyAlignment: 0
      m_AllTileFlags: 1073741825
  - first: {x: 15, y: -15, z: 0}
    second:
      serializedVersion: 2
      m_TileIndex: 89
      m_TileSpriteIndex: 89
      m_TileMatrixIndex: 0
      m_TileColorIndex: 0
      m_TileObjectToInstantiateIndex: 65535
      dummyAlignment: 0
      m_AllTileFlags: 1073741825
  - first: {x: 16, y: -15, z: 0}
    second:
      serializedVersion: 2
      m_TileIndex: 90
      m_TileSpriteIndex: 90
      m_TileMatrixIndex: 0
      m_TileColorIndex: 0
      m_TileObjectToInstantiateIndex: 65535
      dummyAlignment: 0
      m_AllTileFlags: 1073741825
  - first: {x: -2, y: -14, z: 0}
    second:
      serializedVersion: 2
      m_TileIndex: 78
      m_TileSpriteIndex: 78
      m_TileMatrixIndex: 0
      m_TileColorIndex: 0
      m_TileObjectToInstantiateIndex: 65535
      dummyAlignment: 0
      m_AllTileFlags: 1073741825
  - first: {x: -1, y: -14, z: 0}
    second:
      serializedVersion: 2
      m_TileIndex: 79
      m_TileSpriteIndex: 79
      m_TileMatrixIndex: 0
      m_TileColorIndex: 0
      m_TileObjectToInstantiateIndex: 65535
      dummyAlignment: 0
      m_AllTileFlags: 1073741825
  - first: {x: 1, y: -14, z: 0}
    second:
      serializedVersion: 2
      m_TileIndex: 80
      m_TileSpriteIndex: 80
      m_TileMatrixIndex: 0
      m_TileColorIndex: 0
      m_TileObjectToInstantiateIndex: 65535
      dummyAlignment: 0
      m_AllTileFlags: 1073741825
  - first: {x: 2, y: -14, z: 0}
    second:
      serializedVersion: 2
      m_TileIndex: 81
      m_TileSpriteIndex: 81
      m_TileMatrixIndex: 0
      m_TileColorIndex: 0
      m_TileObjectToInstantiateIndex: 65535
      dummyAlignment: 0
      m_AllTileFlags: 1073741825
  - first: {x: 6, y: -14, z: 0}
    second:
      serializedVersion: 2
      m_TileIndex: 82
      m_TileSpriteIndex: 82
      m_TileMatrixIndex: 0
      m_TileColorIndex: 0
      m_TileObjectToInstantiateIndex: 65535
      dummyAlignment: 0
      m_AllTileFlags: 1073741825
  - first: {x: 4, y: -13, z: 0}
    second:
      serializedVersion: 2
      m_TileIndex: 72
      m_TileSpriteIndex: 72
      m_TileMatrixIndex: 0
      m_TileColorIndex: 0
      m_TileObjectToInstantiateIndex: 65535
      dummyAlignment: 0
      m_AllTileFlags: 1073741825
  - first: {x: 6, y: -13, z: 0}
    second:
      serializedVersion: 2
      m_TileIndex: 73
      m_TileSpriteIndex: 73
      m_TileMatrixIndex: 0
      m_TileColorIndex: 0
      m_TileObjectToInstantiateIndex: 65535
      dummyAlignment: 0
      m_AllTileFlags: 1073741825
  - first: {x: 8, y: -13, z: 0}
    second:
      serializedVersion: 2
      m_TileIndex: 74
      m_TileSpriteIndex: 74
      m_TileMatrixIndex: 0
      m_TileColorIndex: 0
      m_TileObjectToInstantiateIndex: 65535
      dummyAlignment: 0
      m_AllTileFlags: 1073741825
  - first: {x: 12, y: -13, z: 0}
    second:
      serializedVersion: 2
      m_TileIndex: 75
      m_TileSpriteIndex: 75
      m_TileMatrixIndex: 0
      m_TileColorIndex: 0
      m_TileObjectToInstantiateIndex: 65535
      dummyAlignment: 0
      m_AllTileFlags: 1073741825
  - first: {x: 14, y: -13, z: 0}
    second:
      serializedVersion: 2
      m_TileIndex: 76
      m_TileSpriteIndex: 76
      m_TileMatrixIndex: 0
      m_TileColorIndex: 0
      m_TileObjectToInstantiateIndex: 65535
      dummyAlignment: 0
      m_AllTileFlags: 1073741825
  - first: {x: 16, y: -13, z: 0}
    second:
      serializedVersion: 2
      m_TileIndex: 77
      m_TileSpriteIndex: 77
      m_TileMatrixIndex: 0
      m_TileColorIndex: 0
      m_TileObjectToInstantiateIndex: 65535
      dummyAlignment: 0
      m_AllTileFlags: 1073741825
  - first: {x: 4, y: -12, z: 0}
    second:
      serializedVersion: 2
      m_TileIndex: 68
      m_TileSpriteIndex: 68
      m_TileMatrixIndex: 0
      m_TileColorIndex: 0
      m_TileObjectToInstantiateIndex: 65535
      dummyAlignment: 0
      m_AllTileFlags: 1073741825
  - first: {x: 6, y: -12, z: 0}
    second:
      serializedVersion: 2
      m_TileIndex: 69
      m_TileSpriteIndex: 69
      m_TileMatrixIndex: 0
      m_TileColorIndex: 0
      m_TileObjectToInstantiateIndex: 65535
      dummyAlignment: 0
      m_AllTileFlags: 1073741825
  - first: {x: 8, y: -12, z: 0}
    second:
      serializedVersion: 2
      m_TileIndex: 70
      m_TileSpriteIndex: 70
      m_TileMatrixIndex: 0
      m_TileColorIndex: 0
      m_TileObjectToInstantiateIndex: 65535
      dummyAlignment: 0
      m_AllTileFlags: 1073741825
  - first: {x: 10, y: -12, z: 0}
    second:
      serializedVersion: 2
      m_TileIndex: 71
      m_TileSpriteIndex: 71
      m_TileMatrixIndex: 0
      m_TileColorIndex: 0
      m_TileObjectToInstantiateIndex: 65535
      dummyAlignment: 0
      m_AllTileFlags: 1073741825
  - first: {x: -1, y: -10, z: 0}
    second:
      serializedVersion: 2
      m_TileIndex: 63
      m_TileSpriteIndex: 63
      m_TileMatrixIndex: 0
      m_TileColorIndex: 0
      m_TileObjectToInstantiateIndex: 65535
      dummyAlignment: 0
      m_AllTileFlags: 1073741825
  - first: {x: 1, y: -10, z: 0}
    second:
      serializedVersion: 2
      m_TileIndex: 64
      m_TileSpriteIndex: 64
      m_TileMatrixIndex: 0
      m_TileColorIndex: 0
      m_TileObjectToInstantiateIndex: 65535
      dummyAlignment: 0
      m_AllTileFlags: 1073741825
  - first: {x: 12, y: -10, z: 0}
    second:
      serializedVersion: 2
      m_TileIndex: 65
      m_TileSpriteIndex: 65
      m_TileMatrixIndex: 0
      m_TileColorIndex: 0
      m_TileObjectToInstantiateIndex: 65535
      dummyAlignment: 0
      m_AllTileFlags: 1073741825
  - first: {x: 14, y: -10, z: 0}
    second:
      serializedVersion: 2
      m_TileIndex: 66
      m_TileSpriteIndex: 66
      m_TileMatrixIndex: 0
      m_TileColorIndex: 0
      m_TileObjectToInstantiateIndex: 65535
      dummyAlignment: 0
      m_AllTileFlags: 1073741825
  - first: {x: 16, y: -10, z: 0}
    second:
      serializedVersion: 2
      m_TileIndex: 67
      m_TileSpriteIndex: 67
      m_TileMatrixIndex: 0
      m_TileColorIndex: 0
      m_TileObjectToInstantiateIndex: 65535
      dummyAlignment: 0
      m_AllTileFlags: 1073741825
  - first: {x: -2, y: -9, z: 0}
    second:
      serializedVersion: 2
      m_TileIndex: 56
      m_TileSpriteIndex: 56
      m_TileMatrixIndex: 0
      m_TileColorIndex: 0
      m_TileObjectToInstantiateIndex: 65535
      dummyAlignment: 0
      m_AllTileFlags: 1073741825
  - first: {x: -1, y: -9, z: 0}
    second:
      serializedVersion: 2
      m_TileIndex: 57
      m_TileSpriteIndex: 57
      m_TileMatrixIndex: 0
      m_TileColorIndex: 0
      m_TileObjectToInstantiateIndex: 65535
      dummyAlignment: 0
      m_AllTileFlags: 1073741825
  - first: {x: 1, y: -9, z: 0}
    second:
      serializedVersion: 2
      m_TileIndex: 58
      m_TileSpriteIndex: 58
      m_TileMatrixIndex: 0
      m_TileColorIndex: 0
      m_TileObjectToInstantiateIndex: 65535
      dummyAlignment: 0
      m_AllTileFlags: 1073741825
  - first: {x: 2, y: -9, z: 0}
    second:
      serializedVersion: 2
      m_TileIndex: 59
      m_TileSpriteIndex: 59
      m_TileMatrixIndex: 0
      m_TileColorIndex: 0
      m_TileObjectToInstantiateIndex: 65535
      dummyAlignment: 0
      m_AllTileFlags: 1073741825
  - first: {x: 4, y: -9, z: 0}
    second:
      serializedVersion: 2
      m_TileIndex: 60
      m_TileSpriteIndex: 60
      m_TileMatrixIndex: 0
      m_TileColorIndex: 0
      m_TileObjectToInstantiateIndex: 65535
      dummyAlignment: 0
      m_AllTileFlags: 1073741825
  - first: {x: 7, y: -9, z: 0}
    second:
      serializedVersion: 2
      m_TileIndex: 61
      m_TileSpriteIndex: 61
      m_TileMatrixIndex: 0
      m_TileColorIndex: 0
      m_TileObjectToInstantiateIndex: 65535
      dummyAlignment: 0
      m_AllTileFlags: 1073741825
  - first: {x: 8, y: -9, z: 0}
    second:
      serializedVersion: 2
      m_TileIndex: 62
      m_TileSpriteIndex: 62
      m_TileMatrixIndex: 0
      m_TileColorIndex: 0
      m_TileObjectToInstantiateIndex: 65535
      dummyAlignment: 0
      m_AllTileFlags: 1073741825
  - first: {x: 12, y: -8, z: 0}
    second:
      serializedVersion: 2
      m_TileIndex: 53
      m_TileSpriteIndex: 53
      m_TileMatrixIndex: 0
      m_TileColorIndex: 0
      m_TileObjectToInstantiateIndex: 65535
      dummyAlignment: 0
      m_AllTileFlags: 1073741825
  - first: {x: 14, y: -8, z: 0}
    second:
      serializedVersion: 2
      m_TileIndex: 54
      m_TileSpriteIndex: 54
      m_TileMatrixIndex: 0
      m_TileColorIndex: 0
      m_TileObjectToInstantiateIndex: 65535
      dummyAlignment: 0
      m_AllTileFlags: 1073741825
  - first: {x: 16, y: -8, z: 0}
    second:
      serializedVersion: 2
      m_TileIndex: 55
      m_TileSpriteIndex: 55
      m_TileMatrixIndex: 0
      m_TileColorIndex: 0
      m_TileObjectToInstantiateIndex: 65535
      dummyAlignment: 0
      m_AllTileFlags: 1073741825
  - first: {x: -2, y: -6, z: 0}
    second:
      serializedVersion: 2
      m_TileIndex: 44
      m_TileSpriteIndex: 44
      m_TileMatrixIndex: 0
      m_TileColorIndex: 0
      m_TileObjectToInstantiateIndex: 65535
      dummyAlignment: 0
      m_AllTileFlags: 1073741825
  - first: {x: 0, y: -6, z: 0}
    second:
      serializedVersion: 2
      m_TileIndex: 45
      m_TileSpriteIndex: 45
      m_TileMatrixIndex: 0
      m_TileColorIndex: 0
      m_TileObjectToInstantiateIndex: 65535
      dummyAlignment: 0
      m_AllTileFlags: 1073741825
  - first: {x: 2, y: -6, z: 0}
    second:
      serializedVersion: 2
      m_TileIndex: 46
      m_TileSpriteIndex: 46
      m_TileMatrixIndex: 0
      m_TileColorIndex: 0
      m_TileObjectToInstantiateIndex: 65535
      dummyAlignment: 0
      m_AllTileFlags: 1073741825
  - first: {x: 4, y: -6, z: 0}
    second:
      serializedVersion: 2
      m_TileIndex: 47
      m_TileSpriteIndex: 47
      m_TileMatrixIndex: 0
      m_TileColorIndex: 0
      m_TileObjectToInstantiateIndex: 65535
      dummyAlignment: 0
      m_AllTileFlags: 1073741825
  - first: {x: 6, y: -6, z: 0}
    second:
      serializedVersion: 2
      m_TileIndex: 48
      m_TileSpriteIndex: 48
      m_TileMatrixIndex: 0
      m_TileColorIndex: 0
      m_TileObjectToInstantiateIndex: 65535
      dummyAlignment: 0
      m_AllTileFlags: 1073741825
  - first: {x: 8, y: -6, z: 0}
    second:
      serializedVersion: 2
      m_TileIndex: 49
      m_TileSpriteIndex: 49
      m_TileMatrixIndex: 0
      m_TileColorIndex: 0
      m_TileObjectToInstantiateIndex: 65535
      dummyAlignment: 0
      m_AllTileFlags: 1073741825
  - first: {x: 12, y: -6, z: 0}
    second:
      serializedVersion: 2
      m_TileIndex: 50
      m_TileSpriteIndex: 50
      m_TileMatrixIndex: 0
      m_TileColorIndex: 0
      m_TileObjectToInstantiateIndex: 65535
      dummyAlignment: 0
      m_AllTileFlags: 1073741825
  - first: {x: 14, y: -6, z: 0}
    second:
      serializedVersion: 2
      m_TileIndex: 51
      m_TileSpriteIndex: 51
      m_TileMatrixIndex: 0
      m_TileColorIndex: 0
      m_TileObjectToInstantiateIndex: 65535
      dummyAlignment: 0
      m_AllTileFlags: 1073741825
  - first: {x: 16, y: -6, z: 0}
    second:
      serializedVersion: 2
      m_TileIndex: 52
      m_TileSpriteIndex: 52
      m_TileMatrixIndex: 0
      m_TileColorIndex: 0
      m_TileObjectToInstantiateIndex: 65535
      dummyAlignment: 0
      m_AllTileFlags: 1073741825
  - first: {x: -2, y: -4, z: 0}
    second:
      serializedVersion: 2
      m_TileIndex: 34
      m_TileSpriteIndex: 34
      m_TileMatrixIndex: 0
      m_TileColorIndex: 0
      m_TileObjectToInstantiateIndex: 65535
      dummyAlignment: 0
      m_AllTileFlags: 1073741825
  - first: {x: 0, y: -4, z: 0}
    second:
      serializedVersion: 2
      m_TileIndex: 35
      m_TileSpriteIndex: 35
      m_TileMatrixIndex: 0
      m_TileColorIndex: 0
      m_TileObjectToInstantiateIndex: 65535
      dummyAlignment: 0
      m_AllTileFlags: 1073741825
  - first: {x: 2, y: -4, z: 0}
    second:
      serializedVersion: 2
      m_TileIndex: 36
      m_TileSpriteIndex: 36
      m_TileMatrixIndex: 0
      m_TileColorIndex: 0
      m_TileObjectToInstantiateIndex: 65535
      dummyAlignment: 0
      m_AllTileFlags: 1073741825
  - first: {x: 4, y: -4, z: 0}
    second:
      serializedVersion: 2
      m_TileIndex: 37
      m_TileSpriteIndex: 37
      m_TileMatrixIndex: 0
      m_TileColorIndex: 0
      m_TileObjectToInstantiateIndex: 65535
      dummyAlignment: 0
      m_AllTileFlags: 1073741825
  - first: {x: 5, y: -4, z: 0}
    second:
      serializedVersion: 2
      m_TileIndex: 38
      m_TileSpriteIndex: 38
      m_TileMatrixIndex: 0
      m_TileColorIndex: 0
      m_TileObjectToInstantiateIndex: 65535
      dummyAlignment: 0
      m_AllTileFlags: 1073741825
  - first: {x: 6, y: -4, z: 0}
    second:
      serializedVersion: 2
      m_TileIndex: 39
      m_TileSpriteIndex: 39
      m_TileMatrixIndex: 0
      m_TileColorIndex: 0
      m_TileObjectToInstantiateIndex: 65535
      dummyAlignment: 0
      m_AllTileFlags: 1073741825
  - first: {x: 11, y: -4, z: 0}
    second:
      serializedVersion: 2
      m_TileIndex: 40
      m_TileSpriteIndex: 40
      m_TileMatrixIndex: 0
      m_TileColorIndex: 0
      m_TileObjectToInstantiateIndex: 65535
      dummyAlignment: 0
      m_AllTileFlags: 1073741825
  - first: {x: 13, y: -4, z: 0}
    second:
      serializedVersion: 2
      m_TileIndex: 41
      m_TileSpriteIndex: 41
      m_TileMatrixIndex: 0
      m_TileColorIndex: 0
      m_TileObjectToInstantiateIndex: 65535
      dummyAlignment: 0
      m_AllTileFlags: 1073741825
  - first: {x: 17, y: -4, z: 0}
    second:
      serializedVersion: 2
      m_TileIndex: 42
      m_TileSpriteIndex: 42
      m_TileMatrixIndex: 0
      m_TileColorIndex: 0
      m_TileObjectToInstantiateIndex: 65535
      dummyAlignment: 0
      m_AllTileFlags: 1073741825
  - first: {x: 19, y: -4, z: 0}
    second:
      serializedVersion: 2
      m_TileIndex: 43
      m_TileSpriteIndex: 43
      m_TileMatrixIndex: 0
      m_TileColorIndex: 0
      m_TileObjectToInstantiateIndex: 65535
      dummyAlignment: 0
      m_AllTileFlags: 1073741825
  - first: {x: 11, y: -3, z: 0}
    second:
      serializedVersion: 2
      m_TileIndex: 30
      m_TileSpriteIndex: 30
      m_TileMatrixIndex: 0
      m_TileColorIndex: 0
      m_TileObjectToInstantiateIndex: 65535
      dummyAlignment: 0
      m_AllTileFlags: 1073741825
  - first: {x: 13, y: -3, z: 0}
    second:
      serializedVersion: 2
      m_TileIndex: 31
      m_TileSpriteIndex: 31
      m_TileMatrixIndex: 0
      m_TileColorIndex: 0
      m_TileObjectToInstantiateIndex: 65535
      dummyAlignment: 0
      m_AllTileFlags: 1073741825
  - first: {x: 17, y: -3, z: 0}
    second:
      serializedVersion: 2
      m_TileIndex: 32
      m_TileSpriteIndex: 32
      m_TileMatrixIndex: 0
      m_TileColorIndex: 0
      m_TileObjectToInstantiateIndex: 65535
      dummyAlignment: 0
      m_AllTileFlags: 1073741825
  - first: {x: 19, y: -3, z: 0}
    second:
      serializedVersion: 2
      m_TileIndex: 33
      m_TileSpriteIndex: 33
      m_TileMatrixIndex: 0
      m_TileColorIndex: 0
      m_TileObjectToInstantiateIndex: 65535
      dummyAlignment: 0
      m_AllTileFlags: 1073741825
  - first: {x: -2, y: -2, z: 0}
    second:
      serializedVersion: 2
      m_TileIndex: 23
      m_TileSpriteIndex: 23
      m_TileMatrixIndex: 0
      m_TileColorIndex: 0
      m_TileObjectToInstantiateIndex: 65535
      dummyAlignment: 0
      m_AllTileFlags: 1073741825
  - first: {x: 0, y: -2, z: 0}
    second:
      serializedVersion: 2
      m_TileIndex: 24
      m_TileSpriteIndex: 24
      m_TileMatrixIndex: 0
      m_TileColorIndex: 0
      m_TileObjectToInstantiateIndex: 65535
      dummyAlignment: 0
      m_AllTileFlags: 1073741825
  - first: {x: 2, y: -2, z: 0}
    second:
      serializedVersion: 2
      m_TileIndex: 25
      m_TileSpriteIndex: 25
      m_TileMatrixIndex: 0
      m_TileColorIndex: 0
      m_TileObjectToInstantiateIndex: 65535
      dummyAlignment: 0
      m_AllTileFlags: 1073741825
  - first: {x: 4, y: -2, z: 0}
    second:
      serializedVersion: 2
      m_TileIndex: 26
      m_TileSpriteIndex: 26
      m_TileMatrixIndex: 0
      m_TileColorIndex: 0
      m_TileObjectToInstantiateIndex: 65535
      dummyAlignment: 0
      m_AllTileFlags: 1073741825
  - first: {x: 5, y: -2, z: 0}
    second:
      serializedVersion: 2
      m_TileIndex: 27
      m_TileSpriteIndex: 27
      m_TileMatrixIndex: 0
      m_TileColorIndex: 0
      m_TileObjectToInstantiateIndex: 65535
      dummyAlignment: 0
      m_AllTileFlags: 1073741825
  - first: {x: 7, y: -2, z: 0}
    second:
      serializedVersion: 2
      m_TileIndex: 28
      m_TileSpriteIndex: 28
      m_TileMatrixIndex: 0
      m_TileColorIndex: 0
      m_TileObjectToInstantiateIndex: 65535
      dummyAlignment: 0
      m_AllTileFlags: 1073741825
  - first: {x: 8, y: -2, z: 0}
    second:
      serializedVersion: 2
      m_TileIndex: 29
      m_TileSpriteIndex: 29
      m_TileMatrixIndex: 0
      m_TileColorIndex: 0
      m_TileObjectToInstantiateIndex: 65535
      dummyAlignment: 0
      m_AllTileFlags: 1073741825
  - first: {x: 10, y: -1, z: 0}
    second:
      serializedVersion: 2
      m_TileIndex: 15
      m_TileSpriteIndex: 15
      m_TileMatrixIndex: 0
      m_TileColorIndex: 0
      m_TileObjectToInstantiateIndex: 65535
      dummyAlignment: 0
      m_AllTileFlags: 1073741825
  - first: {x: 11, y: -1, z: 0}
    second:
      serializedVersion: 2
      m_TileIndex: 16
      m_TileSpriteIndex: 16
      m_TileMatrixIndex: 0
      m_TileColorIndex: 0
      m_TileObjectToInstantiateIndex: 65535
      dummyAlignment: 0
      m_AllTileFlags: 1073741825
  - first: {x: 13, y: -1, z: 0}
    second:
      serializedVersion: 2
      m_TileIndex: 17
      m_TileSpriteIndex: 17
      m_TileMatrixIndex: 0
      m_TileColorIndex: 0
      m_TileObjectToInstantiateIndex: 65535
      dummyAlignment: 0
      m_AllTileFlags: 1073741825
  - first: {x: 14, y: -1, z: 0}
    second:
      serializedVersion: 2
      m_TileIndex: 18
      m_TileSpriteIndex: 18
      m_TileMatrixIndex: 0
      m_TileColorIndex: 0
      m_TileObjectToInstantiateIndex: 65535
      dummyAlignment: 0
      m_AllTileFlags: 1073741825
  - first: {x: 16, y: -1, z: 0}
    second:
      serializedVersion: 2
      m_TileIndex: 19
      m_TileSpriteIndex: 19
      m_TileMatrixIndex: 0
      m_TileColorIndex: 0
      m_TileObjectToInstantiateIndex: 65535
      dummyAlignment: 0
      m_AllTileFlags: 1073741825
  - first: {x: 17, y: -1, z: 0}
    second:
      serializedVersion: 2
      m_TileIndex: 20
      m_TileSpriteIndex: 20
      m_TileMatrixIndex: 0
      m_TileColorIndex: 0
      m_TileObjectToInstantiateIndex: 65535
      dummyAlignment: 0
      m_AllTileFlags: 1073741825
  - first: {x: 19, y: -1, z: 0}
    second:
      serializedVersion: 2
      m_TileIndex: 21
      m_TileSpriteIndex: 21
      m_TileMatrixIndex: 0
      m_TileColorIndex: 0
      m_TileObjectToInstantiateIndex: 65535
      dummyAlignment: 0
      m_AllTileFlags: 1073741825
  - first: {x: 20, y: -1, z: 0}
    second:
      serializedVersion: 2
      m_TileIndex: 22
      m_TileSpriteIndex: 22
      m_TileMatrixIndex: 0
      m_TileColorIndex: 0
      m_TileObjectToInstantiateIndex: 65535
      dummyAlignment: 0
      m_AllTileFlags: 1073741825
  - first: {x: -2, y: 0, z: 0}
    second:
      serializedVersion: 2
      m_TileIndex: 0
      m_TileSpriteIndex: 0
      m_TileMatrixIndex: 0
      m_TileColorIndex: 0
      m_TileObjectToInstantiateIndex: 65535
      dummyAlignment: 0
      m_AllTileFlags: 1073741825
  - first: {x: 2, y: 0, z: 0}
    second:
      serializedVersion: 2
      m_TileIndex: 2
      m_TileSpriteIndex: 2
      m_TileMatrixIndex: 0
      m_TileColorIndex: 0
      m_TileObjectToInstantiateIndex: 65535
      dummyAlignment: 0
      m_AllTileFlags: 1073741825
  - first: {x: 4, y: 0, z: 0}
    second:
      serializedVersion: 2
      m_TileIndex: 3
      m_TileSpriteIndex: 3
      m_TileMatrixIndex: 0
      m_TileColorIndex: 0
      m_TileObjectToInstantiateIndex: 65535
      dummyAlignment: 0
      m_AllTileFlags: 1073741825
  - first: {x: 6, y: 0, z: 0}
    second:
      serializedVersion: 2
      m_TileIndex: 4
      m_TileSpriteIndex: 4
      m_TileMatrixIndex: 0
      m_TileColorIndex: 0
      m_TileObjectToInstantiateIndex: 65535
      dummyAlignment: 0
      m_AllTileFlags: 1073741825
  - first: {x: 7, y: 0, z: 0}
    second:
      serializedVersion: 2
      m_TileIndex: 5
      m_TileSpriteIndex: 5
      m_TileMatrixIndex: 0
      m_TileColorIndex: 0
      m_TileObjectToInstantiateIndex: 65535
      dummyAlignment: 0
      m_AllTileFlags: 1073741825
  - first: {x: 8, y: 0, z: 0}
    second:
      serializedVersion: 2
      m_TileIndex: 6
      m_TileSpriteIndex: 6
      m_TileMatrixIndex: 0
      m_TileColorIndex: 0
      m_TileObjectToInstantiateIndex: 65535
      dummyAlignment: 0
      m_AllTileFlags: 1073741825
  - first: {x: 10, y: 0, z: 0}
    second:
      serializedVersion: 2
      m_TileIndex: 7
      m_TileSpriteIndex: 7
      m_TileMatrixIndex: 0
      m_TileColorIndex: 0
      m_TileObjectToInstantiateIndex: 65535
      dummyAlignment: 0
      m_AllTileFlags: 1073741825
  - first: {x: 11, y: 0, z: 0}
    second:
      serializedVersion: 2
      m_TileIndex: 8
      m_TileSpriteIndex: 8
      m_TileMatrixIndex: 0
      m_TileColorIndex: 0
      m_TileObjectToInstantiateIndex: 65535
      dummyAlignment: 0
      m_AllTileFlags: 1073741825
  - first: {x: 13, y: 0, z: 0}
    second:
      serializedVersion: 2
      m_TileIndex: 9
      m_TileSpriteIndex: 9
      m_TileMatrixIndex: 0
      m_TileColorIndex: 0
      m_TileObjectToInstantiateIndex: 65535
      dummyAlignment: 0
      m_AllTileFlags: 1073741825
  - first: {x: 14, y: 0, z: 0}
    second:
      serializedVersion: 2
      m_TileIndex: 10
      m_TileSpriteIndex: 10
      m_TileMatrixIndex: 0
      m_TileColorIndex: 0
      m_TileObjectToInstantiateIndex: 65535
      dummyAlignment: 0
      m_AllTileFlags: 1073741825
  - first: {x: 16, y: 0, z: 0}
    second:
      serializedVersion: 2
      m_TileIndex: 11
      m_TileSpriteIndex: 11
      m_TileMatrixIndex: 0
      m_TileColorIndex: 0
      m_TileObjectToInstantiateIndex: 65535
      dummyAlignment: 0
      m_AllTileFlags: 1073741825
  - first: {x: 17, y: 0, z: 0}
    second:
      serializedVersion: 2
      m_TileIndex: 12
      m_TileSpriteIndex: 12
      m_TileMatrixIndex: 0
      m_TileColorIndex: 0
      m_TileObjectToInstantiateIndex: 65535
      dummyAlignment: 0
      m_AllTileFlags: 1073741825
  - first: {x: 19, y: 0, z: 0}
    second:
      serializedVersion: 2
      m_TileIndex: 13
      m_TileSpriteIndex: 13
      m_TileMatrixIndex: 0
      m_TileColorIndex: 0
      m_TileObjectToInstantiateIndex: 65535
      dummyAlignment: 0
      m_AllTileFlags: 1073741825
  - first: {x: 20, y: 0, z: 0}
    second:
      serializedVersion: 2
      m_TileIndex: 14
      m_TileSpriteIndex: 14
      m_TileMatrixIndex: 0
      m_TileColorIndex: 0
      m_TileObjectToInstantiateIndex: 65535
      dummyAlignment: 0
      m_AllTileFlags: 1073741825
  m_AnimatedTiles: {}
  m_TileAssetArray:
  - m_RefCount: 1
    m_Data: {fileID: 11400000, guid: bb3520a55781a954abe89b92bcdc313f, type: 2}
  - m_RefCount: 0
    m_Data: {fileID: 0}
  - m_RefCount: 1
    m_Data: {fileID: 11400000, guid: 6106597909d47804dad36a5aab5d99b8, type: 2}
  - m_RefCount: 1
    m_Data: {fileID: 11400000, guid: a0b280c02cbfffe4084f4722ed26afcc, type: 2}
  - m_RefCount: 1
    m_Data: {fileID: 11400000, guid: 54b92458ba807204c9bec304cecbc5f8, type: 2}
  - m_RefCount: 1
    m_Data: {fileID: 11400000, guid: 3fd0542d8cef4f94ca67fc667908bbb7, type: 2}
  - m_RefCount: 1
    m_Data: {fileID: 11400000, guid: 86c556afa3a132048b03b316efc9f897, type: 2}
  - m_RefCount: 1
    m_Data: {fileID: 11400000, guid: b7f23a79dfd6b104593150a2da274ec8, type: 2}
  - m_RefCount: 1
    m_Data: {fileID: 11400000, guid: d8dc96555df42e94dba565eae3e3e30d, type: 2}
  - m_RefCount: 1
    m_Data: {fileID: 11400000, guid: 01eacddc850c8594d98ac323a25210ac, type: 2}
  - m_RefCount: 1
    m_Data: {fileID: 11400000, guid: 5fea5f896fa49674389d58add967afa9, type: 2}
  - m_RefCount: 1
    m_Data: {fileID: 11400000, guid: dbd12c47406d66c4d837cd67f6157a9f, type: 2}
  - m_RefCount: 1
    m_Data: {fileID: 11400000, guid: 441afb49a6a3c8e41820d8d218442054, type: 2}
  - m_RefCount: 1
    m_Data: {fileID: 11400000, guid: b7db3835f44776744aa6b17f5fe0bd26, type: 2}
  - m_RefCount: 1
    m_Data: {fileID: 11400000, guid: 70ef95d2121c6204d95aeb88bfbc0504, type: 2}
  - m_RefCount: 1
    m_Data: {fileID: 11400000, guid: 32661da8ce8dd3644bc6468732fc6bf5, type: 2}
  - m_RefCount: 1
    m_Data: {fileID: 11400000, guid: 5248c970fd9211546bd3464de6f3c51c, type: 2}
  - m_RefCount: 1
    m_Data: {fileID: 11400000, guid: b9344e08b64d36842b6d88a418a3aa1f, type: 2}
  - m_RefCount: 1
    m_Data: {fileID: 11400000, guid: 0162cdbfcae4110498f6e1d3e35b1c55, type: 2}
  - m_RefCount: 1
    m_Data: {fileID: 11400000, guid: e7347a6ca6d80754a80ca305ccabfeb6, type: 2}
  - m_RefCount: 1
    m_Data: {fileID: 11400000, guid: bf52b14d19901034bbb8f9bc58d03e32, type: 2}
  - m_RefCount: 1
    m_Data: {fileID: 11400000, guid: b02df6a39c3c60445993c5f9235b37e3, type: 2}
  - m_RefCount: 1
    m_Data: {fileID: 11400000, guid: 8c933fd3ebbc0d84c974cc1d5dcc48d9, type: 2}
  - m_RefCount: 1
    m_Data: {fileID: 11400000, guid: f507f9c2862ce4846baef785fb27a5f1, type: 2}
  - m_RefCount: 1
    m_Data: {fileID: 11400000, guid: c541c54721a16c2469f4cc6e8d48c303, type: 2}
  - m_RefCount: 1
    m_Data: {fileID: 11400000, guid: 0e4d7fffb7e9c434c9dad1d562df3bdf, type: 2}
  - m_RefCount: 1
    m_Data: {fileID: 11400000, guid: 5aee560c5f58ecd4da0c90ceb8da0308, type: 2}
  - m_RefCount: 1
    m_Data: {fileID: 11400000, guid: ff6971726c1dd6f44b2d1531b2fc58e2, type: 2}
  - m_RefCount: 1
    m_Data: {fileID: 11400000, guid: 6b437b4fa0d0f4648b4f687cf539ab76, type: 2}
  - m_RefCount: 1
    m_Data: {fileID: 11400000, guid: fb5435fde59495f4a9d8d148615b47fa, type: 2}
  - m_RefCount: 1
    m_Data: {fileID: 11400000, guid: 4c4f101011a3f6f4b91cd4ab5acf104c, type: 2}
  - m_RefCount: 1
    m_Data: {fileID: 11400000, guid: a7dca9d71591f534d82dfb8263cc6b2b, type: 2}
  - m_RefCount: 1
    m_Data: {fileID: 11400000, guid: cae9a8360392bfd49b13e8cbe579bf85, type: 2}
  - m_RefCount: 1
    m_Data: {fileID: 11400000, guid: 617e78c004a17874bba2e83fd1509baa, type: 2}
  - m_RefCount: 1
    m_Data: {fileID: 11400000, guid: ebb04c796935ff349956ff30bf515073, type: 2}
  - m_RefCount: 1
    m_Data: {fileID: 11400000, guid: d497bb3d933aaad4b90a7c77e66b856a, type: 2}
  - m_RefCount: 1
    m_Data: {fileID: 11400000, guid: db4fa6d5e47b2bb4fb72eef721796be1, type: 2}
  - m_RefCount: 1
    m_Data: {fileID: 11400000, guid: 0db47fab51e28614f89faface3c7e766, type: 2}
  - m_RefCount: 1
    m_Data: {fileID: 11400000, guid: 897eed2c71ed45749b27f38e360b92fc, type: 2}
  - m_RefCount: 1
    m_Data: {fileID: 11400000, guid: 85df98f43e21653469271533f4038122, type: 2}
  - m_RefCount: 1
    m_Data: {fileID: 11400000, guid: 0403385aea9241d4f905978063b5f6fa, type: 2}
  - m_RefCount: 1
    m_Data: {fileID: 11400000, guid: 34e7085cd8d4f5347b0a181164941bef, type: 2}
  - m_RefCount: 1
    m_Data: {fileID: 11400000, guid: bd649b0ac389e614584644136213427d, type: 2}
  - m_RefCount: 1
    m_Data: {fileID: 11400000, guid: 55bafae4ec7630148bc3460c22a96af9, type: 2}
  - m_RefCount: 1
    m_Data: {fileID: 11400000, guid: df5b1426695aee246b7d196f56e559a4, type: 2}
  - m_RefCount: 1
    m_Data: {fileID: 11400000, guid: 6232d16a90f135d4ea368d5e8b34b4a3, type: 2}
  - m_RefCount: 1
    m_Data: {fileID: 11400000, guid: 5e855e640d9e0ab4fa89e9bea8dc30de, type: 2}
  - m_RefCount: 1
    m_Data: {fileID: 11400000, guid: 6267d21089f75674e8925b33d103c902, type: 2}
  - m_RefCount: 1
    m_Data: {fileID: 11400000, guid: e5392e55430188a48bcd79da1a30765d, type: 2}
  - m_RefCount: 1
    m_Data: {fileID: 11400000, guid: 5ea81004fce0b8c43b0827f2a8fe1a17, type: 2}
  - m_RefCount: 1
    m_Data: {fileID: 11400000, guid: 5e5eaf71b365a1f4bb567388ab72640a, type: 2}
  - m_RefCount: 1
    m_Data: {fileID: 11400000, guid: 3bd0c7c51a16804468adfa1189f4d3e7, type: 2}
  - m_RefCount: 1
    m_Data: {fileID: 11400000, guid: 96023b3bfc88ddb4180c75fd62a37ed8, type: 2}
  - m_RefCount: 1
    m_Data: {fileID: 11400000, guid: e4f7514cb0b1f8a4fa939a375b06a9dd, type: 2}
  - m_RefCount: 1
    m_Data: {fileID: 11400000, guid: c2ee9b794942d86438549fd521ed5c44, type: 2}
  - m_RefCount: 1
    m_Data: {fileID: 11400000, guid: 7ae52af6c6ab1f340aa1a4291347c476, type: 2}
  - m_RefCount: 1
    m_Data: {fileID: 11400000, guid: 94aa16297ba86b84d90dd5ebd3ce384f, type: 2}
  - m_RefCount: 1
    m_Data: {fileID: 11400000, guid: 85936b914a1f6db4abe8b90aee8c2e20, type: 2}
  - m_RefCount: 1
    m_Data: {fileID: 11400000, guid: 26a3ae836e2b82e43847066439abedc6, type: 2}
  - m_RefCount: 1
    m_Data: {fileID: 11400000, guid: 816cd67d36b9e13408f323bcf7d82ebe, type: 2}
  - m_RefCount: 1
    m_Data: {fileID: 11400000, guid: 5c8b9551abdb8ca489078ff9de589364, type: 2}
  - m_RefCount: 1
    m_Data: {fileID: 11400000, guid: 38276c4cd23f6bb45a4df847849ceaa2, type: 2}
  - m_RefCount: 1
    m_Data: {fileID: 11400000, guid: 8eeb48ed30f7a1542b6cfeb217ae36f2, type: 2}
  - m_RefCount: 1
    m_Data: {fileID: 11400000, guid: 772edceb43b2f0543ab7be0cc5f7851a, type: 2}
  - m_RefCount: 1
    m_Data: {fileID: 11400000, guid: 289e056c352bcc0438d5a175da7cb378, type: 2}
  - m_RefCount: 1
    m_Data: {fileID: 11400000, guid: fe8c6c3d73d8be340a49bfa1339236a4, type: 2}
  - m_RefCount: 1
    m_Data: {fileID: 11400000, guid: 0e47bc3f4f4fa6842bcc126de133fd67, type: 2}
  - m_RefCount: 1
    m_Data: {fileID: 11400000, guid: 119c502018dad434bbdccc32e76491e8, type: 2}
  - m_RefCount: 1
    m_Data: {fileID: 11400000, guid: 627d8301bf5f71246898586a86120f54, type: 2}
  - m_RefCount: 1
    m_Data: {fileID: 11400000, guid: e185933dd07e3b04c9f1b9bccde48919, type: 2}
  - m_RefCount: 1
    m_Data: {fileID: 11400000, guid: 812a3bb7082abc34db8466cb0104cb00, type: 2}
  - m_RefCount: 1
    m_Data: {fileID: 11400000, guid: c2b6e1875fa9c10419f6f334f9b8183c, type: 2}
  - m_RefCount: 1
    m_Data: {fileID: 11400000, guid: 74bcfd18541b84f49a56abbee0b62b83, type: 2}
  - m_RefCount: 1
    m_Data: {fileID: 11400000, guid: 2a6be504e1cf8ef4c814fac1c3528612, type: 2}
  - m_RefCount: 1
    m_Data: {fileID: 11400000, guid: c6552e41282d9554087c672319895a4e, type: 2}
  - m_RefCount: 1
    m_Data: {fileID: 11400000, guid: 980de823f08f5c8429c5090bd39089aa, type: 2}
  - m_RefCount: 1
    m_Data: {fileID: 11400000, guid: b7a237a064cdb1745bccdc2a214306d1, type: 2}
  - m_RefCount: 1
    m_Data: {fileID: 11400000, guid: b987ae056d4ab844ab726fc8a95bac96, type: 2}
  - m_RefCount: 1
    m_Data: {fileID: 11400000, guid: 4d820143dabff7f48888a021fb66efe6, type: 2}
  - m_RefCount: 1
    m_Data: {fileID: 11400000, guid: f842f5272625778499f47758a1ba3122, type: 2}
  - m_RefCount: 1
    m_Data: {fileID: 11400000, guid: 8ae3a87a378d25c41b1bd3099d07ad4b, type: 2}
  - m_RefCount: 1
    m_Data: {fileID: 11400000, guid: dfa50464614d53b49aabdee1f66b799f, type: 2}
  - m_RefCount: 1
    m_Data: {fileID: 11400000, guid: d0156377d09f6c34a85bd8fb0c0c14c1, type: 2}
  - m_RefCount: 1
    m_Data: {fileID: 11400000, guid: 64acea4efaed06d44bf141d8aaad8f0c, type: 2}
  - m_RefCount: 1
    m_Data: {fileID: 11400000, guid: d9c9fcf3b53de8e4f993609cdac7c322, type: 2}
  - m_RefCount: 1
    m_Data: {fileID: 11400000, guid: 6b1d8c50cc16b93438a5adc569a81b76, type: 2}
  - m_RefCount: 1
    m_Data: {fileID: 11400000, guid: 7bfba1e90edc16141b538fef611d9cd6, type: 2}
  - m_RefCount: 1
    m_Data: {fileID: 11400000, guid: 4859dbb994e2e7a48a617ec057901e6d, type: 2}
  - m_RefCount: 1
    m_Data: {fileID: 11400000, guid: 7197e56390a633d4ca0dab4b43f1b762, type: 2}
  - m_RefCount: 1
    m_Data: {fileID: 11400000, guid: 33c04ad312209db4c90b81d31ebf40f9, type: 2}
  - m_RefCount: 1
    m_Data: {fileID: 11400000, guid: 903124808b079484ab00d85e5076cf71, type: 2}
  - m_RefCount: 1
    m_Data: {fileID: 11400000, guid: 74561ab308b36374b945e095b269e0e8, type: 2}
  - m_RefCount: 1
    m_Data: {fileID: 11400000, guid: d5c3eb2696d74f344bc815a43c1b6ba1, type: 2}
  - m_RefCount: 1
    m_Data: {fileID: 11400000, guid: d08547a94b2615b4b838b4c4295940f8, type: 2}
  - m_RefCount: 1
    m_Data: {fileID: 11400000, guid: ccae5e21ee7ee474d9191b4fc01077a5, type: 2}
  - m_RefCount: 1
    m_Data: {fileID: 11400000, guid: 74a4d29e355d7be4ca0f096801cbfb67, type: 2}
  - m_RefCount: 1
    m_Data: {fileID: 11400000, guid: 2da0581e3a69dee46bd67ef0558303bd, type: 2}
  - m_RefCount: 1
    m_Data: {fileID: 11400000, guid: fab93e327bbd33a4fbf9b3fea2eb6063, type: 2}
  - m_RefCount: 1
    m_Data: {fileID: 11400000, guid: 4857ecee0f7f0ad4eac1bc3b74e07a97, type: 2}
  - m_RefCount: 1
    m_Data: {fileID: 11400000, guid: 1f98f6970b7fce24a97d80bfb07728b6, type: 2}
  - m_RefCount: 1
    m_Data: {fileID: 11400000, guid: 872081b14e7089c4c8aa4ca2ff04d870, type: 2}
  - m_RefCount: 1
    m_Data: {fileID: 11400000, guid: d9209c26ad7b5b2488a99ef47d768a56, type: 2}
  - m_RefCount: 1
    m_Data: {fileID: 11400000, guid: 24daafe29b6f3634fab0ccce66a01e75, type: 2}
  - m_RefCount: 1
    m_Data: {fileID: 11400000, guid: 7646a69dd68f4ea498b5b936d64ce07f, type: 2}
  - m_RefCount: 1
    m_Data: {fileID: 11400000, guid: ef23768d2fc963c4cac1ae3e66489dd1, type: 2}
  - m_RefCount: 1
    m_Data: {fileID: 11400000, guid: 702786ea6838f6f4abf83953a91e4961, type: 2}
  - m_RefCount: 1
    m_Data: {fileID: 11400000, guid: 59b06d2d0eac74e44a1e31ae4c52d5f2, type: 2}
  - m_RefCount: 1
    m_Data: {fileID: 11400000, guid: 5a80fe4c8be81024e8b13735ff923ee7, type: 2}
  - m_RefCount: 1
    m_Data: {fileID: 11400000, guid: db366fc30687e6048a06685114ccb6f3, type: 2}
  - m_RefCount: 1
    m_Data: {fileID: 11400000, guid: 88ebfe9a21771ba4abbdad7e0e8cde1f, type: 2}
  - m_RefCount: 1
    m_Data: {fileID: 11400000, guid: 356e51e55dc771d43a2af1141ac0c6ae, type: 2}
  - m_RefCount: 1
    m_Data: {fileID: 11400000, guid: 9eda67683fc37264da2456a2a6d1501e, type: 2}
  - m_RefCount: 1
    m_Data: {fileID: 11400000, guid: ce280b8864d26644192ff34f7082bbd5, type: 2}
  - m_RefCount: 1
    m_Data: {fileID: 11400000, guid: 82a7d5602284f5a498f8947d101ac846, type: 2}
  - m_RefCount: 1
    m_Data: {fileID: 11400000, guid: 6618f48f6179dd44fa6025c6a5c33e18, type: 2}
  - m_RefCount: 1
    m_Data: {fileID: 11400000, guid: 91e72082293ffcd43a34ec6fd0b1ef6a, type: 2}
  - m_RefCount: 1
    m_Data: {fileID: 11400000, guid: a75a0b2b05406ca4d952f5b870cd4054, type: 2}
  - m_RefCount: 1
    m_Data: {fileID: 11400000, guid: b19f1edd95b052d47943ba291d5dec4f, type: 2}
  - m_RefCount: 1
    m_Data: {fileID: 11400000, guid: 961a3dc3220ba2144b5f2972da84bd8c, type: 2}
  - m_RefCount: 1
    m_Data: {fileID: 11400000, guid: 1735121839f70a64e87f9b212a625f67, type: 2}
  - m_RefCount: 1
    m_Data: {fileID: 11400000, guid: 4512977c341572544acfe4df3f83a298, type: 2}
  - m_RefCount: 1
    m_Data: {fileID: 11400000, guid: 589ddd6a4136a7342b3950abecb89e2c, type: 2}
  - m_RefCount: 1
    m_Data: {fileID: 11400000, guid: d196c04e921d9b74091edb8436f7e9ec, type: 2}
  - m_RefCount: 1
    m_Data: {fileID: 11400000, guid: e77276b823626c14383483ee1d7c42f9, type: 2}
  - m_RefCount: 1
    m_Data: {fileID: 11400000, guid: 3010b24de58d5904e8a14d6374475698, type: 2}
  - m_RefCount: 1
    m_Data: {fileID: 11400000, guid: bd3763d1031ef3e459b11d693e13aeaa, type: 2}
  - m_RefCount: 1
    m_Data: {fileID: 11400000, guid: 92eef5bde894aee4ca83a8d5b8bec657, type: 2}
  - m_RefCount: 1
    m_Data: {fileID: 11400000, guid: ec3def75f01e94748978c225c79d0db9, type: 2}
  m_TileSpriteArray:
  - m_RefCount: 1
    m_Data: {fileID: 21300000, guid: 261212b977f594d5dbc48631a5c1295c, type: 3}
  - m_RefCount: 0
    m_Data: {fileID: 0}
  - m_RefCount: 1
    m_Data: {fileID: 21300004, guid: 261212b977f594d5dbc48631a5c1295c, type: 3}
  - m_RefCount: 1
    m_Data: {fileID: 21300006, guid: 261212b977f594d5dbc48631a5c1295c, type: 3}
  - m_RefCount: 1
    m_Data: {fileID: 21300008, guid: 261212b977f594d5dbc48631a5c1295c, type: 3}
  - m_RefCount: 1
    m_Data: {fileID: 21300010, guid: 261212b977f594d5dbc48631a5c1295c, type: 3}
  - m_RefCount: 1
    m_Data: {fileID: 21300012, guid: 261212b977f594d5dbc48631a5c1295c, type: 3}
  - m_RefCount: 1
    m_Data: {fileID: 21300014, guid: 261212b977f594d5dbc48631a5c1295c, type: 3}
  - m_RefCount: 1
    m_Data: {fileID: 21300016, guid: 261212b977f594d5dbc48631a5c1295c, type: 3}
  - m_RefCount: 1
    m_Data: {fileID: 21300018, guid: 261212b977f594d5dbc48631a5c1295c, type: 3}
  - m_RefCount: 1
    m_Data: {fileID: 21300020, guid: 261212b977f594d5dbc48631a5c1295c, type: 3}
  - m_RefCount: 1
    m_Data: {fileID: 21300022, guid: 261212b977f594d5dbc48631a5c1295c, type: 3}
  - m_RefCount: 1
    m_Data: {fileID: 21300024, guid: 261212b977f594d5dbc48631a5c1295c, type: 3}
  - m_RefCount: 1
    m_Data: {fileID: 21300026, guid: 261212b977f594d5dbc48631a5c1295c, type: 3}
  - m_RefCount: 1
    m_Data: {fileID: 21300028, guid: 261212b977f594d5dbc48631a5c1295c, type: 3}
  - m_RefCount: 1
    m_Data: {fileID: 21300030, guid: 261212b977f594d5dbc48631a5c1295c, type: 3}
  - m_RefCount: 1
    m_Data: {fileID: 21300032, guid: 261212b977f594d5dbc48631a5c1295c, type: 3}
  - m_RefCount: 1
    m_Data: {fileID: 21300034, guid: 261212b977f594d5dbc48631a5c1295c, type: 3}
  - m_RefCount: 1
    m_Data: {fileID: 21300036, guid: 261212b977f594d5dbc48631a5c1295c, type: 3}
  - m_RefCount: 1
    m_Data: {fileID: 21300038, guid: 261212b977f594d5dbc48631a5c1295c, type: 3}
  - m_RefCount: 1
    m_Data: {fileID: 21300040, guid: 261212b977f594d5dbc48631a5c1295c, type: 3}
  - m_RefCount: 1
    m_Data: {fileID: 21300042, guid: 261212b977f594d5dbc48631a5c1295c, type: 3}
  - m_RefCount: 1
    m_Data: {fileID: 21300044, guid: 261212b977f594d5dbc48631a5c1295c, type: 3}
  - m_RefCount: 1
    m_Data: {fileID: 21300046, guid: 261212b977f594d5dbc48631a5c1295c, type: 3}
  - m_RefCount: 1
    m_Data: {fileID: 21300048, guid: 261212b977f594d5dbc48631a5c1295c, type: 3}
  - m_RefCount: 1
    m_Data: {fileID: 21300050, guid: 261212b977f594d5dbc48631a5c1295c, type: 3}
  - m_RefCount: 1
    m_Data: {fileID: 21300052, guid: 261212b977f594d5dbc48631a5c1295c, type: 3}
  - m_RefCount: 1
    m_Data: {fileID: 21300054, guid: 261212b977f594d5dbc48631a5c1295c, type: 3}
  - m_RefCount: 1
    m_Data: {fileID: 21300056, guid: 261212b977f594d5dbc48631a5c1295c, type: 3}
  - m_RefCount: 1
    m_Data: {fileID: 21300058, guid: 261212b977f594d5dbc48631a5c1295c, type: 3}
  - m_RefCount: 1
    m_Data: {fileID: 21300060, guid: 261212b977f594d5dbc48631a5c1295c, type: 3}
  - m_RefCount: 1
    m_Data: {fileID: 21300062, guid: 261212b977f594d5dbc48631a5c1295c, type: 3}
  - m_RefCount: 1
    m_Data: {fileID: 21300064, guid: 261212b977f594d5dbc48631a5c1295c, type: 3}
  - m_RefCount: 1
    m_Data: {fileID: 21300066, guid: 261212b977f594d5dbc48631a5c1295c, type: 3}
  - m_RefCount: 1
    m_Data: {fileID: 21300068, guid: 261212b977f594d5dbc48631a5c1295c, type: 3}
  - m_RefCount: 1
    m_Data: {fileID: 21300070, guid: 261212b977f594d5dbc48631a5c1295c, type: 3}
  - m_RefCount: 1
    m_Data: {fileID: 21300072, guid: 261212b977f594d5dbc48631a5c1295c, type: 3}
  - m_RefCount: 1
    m_Data: {fileID: 21300074, guid: 261212b977f594d5dbc48631a5c1295c, type: 3}
  - m_RefCount: 1
    m_Data: {fileID: 21300076, guid: 261212b977f594d5dbc48631a5c1295c, type: 3}
  - m_RefCount: 1
    m_Data: {fileID: 21300078, guid: 261212b977f594d5dbc48631a5c1295c, type: 3}
  - m_RefCount: 1
    m_Data: {fileID: 21300080, guid: 261212b977f594d5dbc48631a5c1295c, type: 3}
  - m_RefCount: 1
    m_Data: {fileID: 21300082, guid: 261212b977f594d5dbc48631a5c1295c, type: 3}
  - m_RefCount: 1
    m_Data: {fileID: 21300084, guid: 261212b977f594d5dbc48631a5c1295c, type: 3}
  - m_RefCount: 1
    m_Data: {fileID: 21300086, guid: 261212b977f594d5dbc48631a5c1295c, type: 3}
  - m_RefCount: 1
    m_Data: {fileID: 21300088, guid: 261212b977f594d5dbc48631a5c1295c, type: 3}
  - m_RefCount: 1
    m_Data: {fileID: 21300090, guid: 261212b977f594d5dbc48631a5c1295c, type: 3}
  - m_RefCount: 1
    m_Data: {fileID: 21300092, guid: 261212b977f594d5dbc48631a5c1295c, type: 3}
  - m_RefCount: 1
    m_Data: {fileID: 21300094, guid: 261212b977f594d5dbc48631a5c1295c, type: 3}
  - m_RefCount: 1
    m_Data: {fileID: 21300096, guid: 261212b977f594d5dbc48631a5c1295c, type: 3}
  - m_RefCount: 1
    m_Data: {fileID: 21300098, guid: 261212b977f594d5dbc48631a5c1295c, type: 3}
  - m_RefCount: 1
    m_Data: {fileID: 21300100, guid: 261212b977f594d5dbc48631a5c1295c, type: 3}
  - m_RefCount: 1
    m_Data: {fileID: 21300102, guid: 261212b977f594d5dbc48631a5c1295c, type: 3}
  - m_RefCount: 1
    m_Data: {fileID: 21300104, guid: 261212b977f594d5dbc48631a5c1295c, type: 3}
  - m_RefCount: 1
    m_Data: {fileID: 21300106, guid: 261212b977f594d5dbc48631a5c1295c, type: 3}
  - m_RefCount: 1
    m_Data: {fileID: 21300108, guid: 261212b977f594d5dbc48631a5c1295c, type: 3}
  - m_RefCount: 1
    m_Data: {fileID: 21300110, guid: 261212b977f594d5dbc48631a5c1295c, type: 3}
  - m_RefCount: 1
    m_Data: {fileID: 21300112, guid: 261212b977f594d5dbc48631a5c1295c, type: 3}
  - m_RefCount: 1
    m_Data: {fileID: 21300114, guid: 261212b977f594d5dbc48631a5c1295c, type: 3}
  - m_RefCount: 1
    m_Data: {fileID: 21300116, guid: 261212b977f594d5dbc48631a5c1295c, type: 3}
  - m_RefCount: 1
    m_Data: {fileID: 21300118, guid: 261212b977f594d5dbc48631a5c1295c, type: 3}
  - m_RefCount: 1
    m_Data: {fileID: 21300120, guid: 261212b977f594d5dbc48631a5c1295c, type: 3}
  - m_RefCount: 1
    m_Data: {fileID: 21300122, guid: 261212b977f594d5dbc48631a5c1295c, type: 3}
  - m_RefCount: 1
    m_Data: {fileID: 21300124, guid: 261212b977f594d5dbc48631a5c1295c, type: 3}
  - m_RefCount: 1
    m_Data: {fileID: 21300126, guid: 261212b977f594d5dbc48631a5c1295c, type: 3}
  - m_RefCount: 1
    m_Data: {fileID: 21300128, guid: 261212b977f594d5dbc48631a5c1295c, type: 3}
  - m_RefCount: 1
    m_Data: {fileID: 21300130, guid: 261212b977f594d5dbc48631a5c1295c, type: 3}
  - m_RefCount: 1
    m_Data: {fileID: 21300132, guid: 261212b977f594d5dbc48631a5c1295c, type: 3}
  - m_RefCount: 1
    m_Data: {fileID: 21300134, guid: 261212b977f594d5dbc48631a5c1295c, type: 3}
  - m_RefCount: 1
    m_Data: {fileID: 21300136, guid: 261212b977f594d5dbc48631a5c1295c, type: 3}
  - m_RefCount: 1
    m_Data: {fileID: 21300138, guid: 261212b977f594d5dbc48631a5c1295c, type: 3}
  - m_RefCount: 1
    m_Data: {fileID: 21300140, guid: 261212b977f594d5dbc48631a5c1295c, type: 3}
  - m_RefCount: 1
    m_Data: {fileID: 21300142, guid: 261212b977f594d5dbc48631a5c1295c, type: 3}
  - m_RefCount: 1
    m_Data: {fileID: 21300144, guid: 261212b977f594d5dbc48631a5c1295c, type: 3}
  - m_RefCount: 1
    m_Data: {fileID: 21300146, guid: 261212b977f594d5dbc48631a5c1295c, type: 3}
  - m_RefCount: 1
    m_Data: {fileID: 21300148, guid: 261212b977f594d5dbc48631a5c1295c, type: 3}
  - m_RefCount: 1
    m_Data: {fileID: 21300150, guid: 261212b977f594d5dbc48631a5c1295c, type: 3}
  - m_RefCount: 1
    m_Data: {fileID: 21300152, guid: 261212b977f594d5dbc48631a5c1295c, type: 3}
  - m_RefCount: 1
    m_Data: {fileID: 21300154, guid: 261212b977f594d5dbc48631a5c1295c, type: 3}
  - m_RefCount: 1
    m_Data: {fileID: 21300156, guid: 261212b977f594d5dbc48631a5c1295c, type: 3}
  - m_RefCount: 1
    m_Data: {fileID: 21300158, guid: 261212b977f594d5dbc48631a5c1295c, type: 3}
  - m_RefCount: 1
    m_Data: {fileID: 21300160, guid: 261212b977f594d5dbc48631a5c1295c, type: 3}
  - m_RefCount: 1
    m_Data: {fileID: 21300162, guid: 261212b977f594d5dbc48631a5c1295c, type: 3}
  - m_RefCount: 1
    m_Data: {fileID: 21300164, guid: 261212b977f594d5dbc48631a5c1295c, type: 3}
  - m_RefCount: 1
    m_Data: {fileID: 21300166, guid: 261212b977f594d5dbc48631a5c1295c, type: 3}
  - m_RefCount: 1
    m_Data: {fileID: 21300168, guid: 261212b977f594d5dbc48631a5c1295c, type: 3}
  - m_RefCount: 1
    m_Data: {fileID: 21300170, guid: 261212b977f594d5dbc48631a5c1295c, type: 3}
  - m_RefCount: 1
    m_Data: {fileID: 21300172, guid: 261212b977f594d5dbc48631a5c1295c, type: 3}
  - m_RefCount: 1
    m_Data: {fileID: 21300174, guid: 261212b977f594d5dbc48631a5c1295c, type: 3}
  - m_RefCount: 1
    m_Data: {fileID: 21300176, guid: 261212b977f594d5dbc48631a5c1295c, type: 3}
  - m_RefCount: 1
    m_Data: {fileID: 21300178, guid: 261212b977f594d5dbc48631a5c1295c, type: 3}
  - m_RefCount: 1
    m_Data: {fileID: 21300180, guid: 261212b977f594d5dbc48631a5c1295c, type: 3}
  - m_RefCount: 1
    m_Data: {fileID: 21300182, guid: 261212b977f594d5dbc48631a5c1295c, type: 3}
  - m_RefCount: 1
    m_Data: {fileID: 21300184, guid: 261212b977f594d5dbc48631a5c1295c, type: 3}
  - m_RefCount: 1
    m_Data: {fileID: 21300186, guid: 261212b977f594d5dbc48631a5c1295c, type: 3}
  - m_RefCount: 1
    m_Data: {fileID: 21300188, guid: 261212b977f594d5dbc48631a5c1295c, type: 3}
  - m_RefCount: 1
    m_Data: {fileID: 21300190, guid: 261212b977f594d5dbc48631a5c1295c, type: 3}
  - m_RefCount: 1
    m_Data: {fileID: 21300192, guid: 261212b977f594d5dbc48631a5c1295c, type: 3}
  - m_RefCount: 1
    m_Data: {fileID: 21300194, guid: 261212b977f594d5dbc48631a5c1295c, type: 3}
  - m_RefCount: 1
    m_Data: {fileID: 21300196, guid: 261212b977f594d5dbc48631a5c1295c, type: 3}
  - m_RefCount: 1
    m_Data: {fileID: 21300198, guid: 261212b977f594d5dbc48631a5c1295c, type: 3}
  - m_RefCount: 1
    m_Data: {fileID: 21300200, guid: 261212b977f594d5dbc48631a5c1295c, type: 3}
  - m_RefCount: 1
    m_Data: {fileID: 21300202, guid: 261212b977f594d5dbc48631a5c1295c, type: 3}
  - m_RefCount: 1
    m_Data: {fileID: 21300204, guid: 261212b977f594d5dbc48631a5c1295c, type: 3}
  - m_RefCount: 1
    m_Data: {fileID: 21300206, guid: 261212b977f594d5dbc48631a5c1295c, type: 3}
  - m_RefCount: 1
    m_Data: {fileID: 21300208, guid: 261212b977f594d5dbc48631a5c1295c, type: 3}
  - m_RefCount: 1
    m_Data: {fileID: 21300210, guid: 261212b977f594d5dbc48631a5c1295c, type: 3}
  - m_RefCount: 1
    m_Data: {fileID: 21300212, guid: 261212b977f594d5dbc48631a5c1295c, type: 3}
  - m_RefCount: 1
    m_Data: {fileID: 21300214, guid: 261212b977f594d5dbc48631a5c1295c, type: 3}
  - m_RefCount: 1
    m_Data: {fileID: 21300216, guid: 261212b977f594d5dbc48631a5c1295c, type: 3}
  - m_RefCount: 1
    m_Data: {fileID: 21300218, guid: 261212b977f594d5dbc48631a5c1295c, type: 3}
  - m_RefCount: 1
    m_Data: {fileID: 21300220, guid: 261212b977f594d5dbc48631a5c1295c, type: 3}
  - m_RefCount: 1
    m_Data: {fileID: 21300222, guid: 261212b977f594d5dbc48631a5c1295c, type: 3}
  - m_RefCount: 1
    m_Data: {fileID: 21300224, guid: 261212b977f594d5dbc48631a5c1295c, type: 3}
  - m_RefCount: 1
    m_Data: {fileID: 21300226, guid: 261212b977f594d5dbc48631a5c1295c, type: 3}
  - m_RefCount: 1
    m_Data: {fileID: 21300228, guid: 261212b977f594d5dbc48631a5c1295c, type: 3}
  - m_RefCount: 1
    m_Data: {fileID: 21300230, guid: 261212b977f594d5dbc48631a5c1295c, type: 3}
  - m_RefCount: 1
    m_Data: {fileID: 21300232, guid: 261212b977f594d5dbc48631a5c1295c, type: 3}
  - m_RefCount: 1
    m_Data: {fileID: 21300234, guid: 261212b977f594d5dbc48631a5c1295c, type: 3}
  - m_RefCount: 1
    m_Data: {fileID: 21300236, guid: 261212b977f594d5dbc48631a5c1295c, type: 3}
  - m_RefCount: 1
    m_Data: {fileID: 21300238, guid: 261212b977f594d5dbc48631a5c1295c, type: 3}
  - m_RefCount: 1
    m_Data: {fileID: 21300240, guid: 261212b977f594d5dbc48631a5c1295c, type: 3}
  - m_RefCount: 1
    m_Data: {fileID: 21300242, guid: 261212b977f594d5dbc48631a5c1295c, type: 3}
  - m_RefCount: 1
    m_Data: {fileID: 21300244, guid: 261212b977f594d5dbc48631a5c1295c, type: 3}
  - m_RefCount: 1
    m_Data: {fileID: 21300246, guid: 261212b977f594d5dbc48631a5c1295c, type: 3}
  - m_RefCount: 1
    m_Data: {fileID: 21300248, guid: 261212b977f594d5dbc48631a5c1295c, type: 3}
  - m_RefCount: 1
    m_Data: {fileID: 21300250, guid: 261212b977f594d5dbc48631a5c1295c, type: 3}
  - m_RefCount: 1
    m_Data: {fileID: 21300252, guid: 261212b977f594d5dbc48631a5c1295c, type: 3}
  - m_RefCount: 1
    m_Data: {fileID: 21300254, guid: 261212b977f594d5dbc48631a5c1295c, type: 3}
  m_TileMatrixArray:
  - m_RefCount: 127
    m_Data:
      e00: 1
      e01: 0
      e02: 0
      e03: 0
      e10: 0
      e11: 1
      e12: 0
      e13: 0
      e20: 0
      e21: 0
      e22: 1
      e23: 0
      e30: 0
      e31: 0
      e32: 0
      e33: 1
  m_TileColorArray:
  - m_RefCount: 127
    m_Data: {r: 1, g: 1, b: 1, a: 1}
  m_TileObjectToInstantiateArray: []
  m_AnimationFrameRate: 1
  m_Color: {r: 1, g: 1, b: 1, a: 1}
  m_Origin: {x: -2, y: -20, z: 0}
  m_Size: {x: 23, y: 21, z: 1}
  m_TileAnchor: {x: 0.5, y: 0.5, z: 0}
  m_TileOrientation: 0
  m_TileOrientationMatrix:
    e00: 1
    e01: 0
    e02: 0
    e03: 0
    e10: 0
    e11: 1
    e12: 0
    e13: 0
    e20: 0
    e21: 0
    e22: 1
    e23: 0
    e30: 0
    e31: 0
    e32: 0
    e33: 1
--- !u!483693784 &1107460217800903839
TilemapRenderer:
  m_ObjectHideFlags: 0
  m_CorrespondingSourceObject: {fileID: 0}
  m_PrefabInstance: {fileID: 0}
  m_PrefabAsset: {fileID: 0}
  m_GameObject: {fileID: 4853522201198824645}
  m_Enabled: 1
  m_CastShadows: 0
  m_ReceiveShadows: 0
  m_DynamicOccludee: 0
  m_StaticShadowCaster: 0
  m_MotionVectors: 1
  m_LightProbeUsage: 0
  m_ReflectionProbeUsage: 0
  m_RayTracingMode: 0
  m_RayTraceProcedural: 0
  m_RenderingLayerMask: 1
  m_RendererPriority: 0
  m_Materials:
  - {fileID: 10754, guid: 0000000000000000f000000000000000, type: 0}
  m_StaticBatchInfo:
    firstSubMesh: 0
    subMeshCount: 0
  m_StaticBatchRoot: {fileID: 0}
  m_ProbeAnchor: {fileID: 0}
  m_LightProbeVolumeOverride: {fileID: 0}
  m_ScaleInLightmap: 1
  m_ReceiveGI: 1
  m_PreserveUVs: 0
  m_IgnoreNormalsForChartDetection: 0
  m_ImportantGI: 0
  m_StitchLightmapSeams: 1
  m_SelectedEditorRenderState: 0
  m_MinimumChartSize: 4
  m_AutoUVMaxDistance: 0.5
  m_AutoUVMaxAngle: 89
  m_LightmapParameters: {fileID: 0}
  m_SortingLayerID: 0
  m_SortingLayer: 0
  m_SortingOrder: 0
  m_ChunkSize: {x: 32, y: 32, z: 32}
  m_ChunkCullingBounds: {x: 0, y: 0, z: 0}
  m_MaxChunkCount: 16
  m_MaxFrameAge: 16
  m_SortOrder: 0
  m_Mode: 0
  m_DetectChunkCullingBounds: 0
  m_MaskInteraction: 0
--- !u!114 &7148368389071647544
MonoBehaviour:
  m_ObjectHideFlags: 0
  m_CorrespondingSourceObject: {fileID: 0}
  m_PrefabInstance: {fileID: 0}
  m_PrefabAsset: {fileID: 0}
  m_GameObject: {fileID: 0}
  m_Enabled: 1
  m_EditorHideFlags: 0
  m_Script: {fileID: 12395, guid: 0000000000000000e000000000000000, type: 0}
  m_Name: Palette Settings
  m_EditorClassIdentifier: 
  cellSizing: 0
  m_TransparencySortMode: 0
  m_TransparencySortAxis: {x: 0, y: 0, z: 1}
