%YAML 1.1
%TAG !u! tag:unity3d.com,2011:
--- !u!1 &1294909988073648879
GameObject:
  m_ObjectHideFlags: 0
  m_CorrespondingSourceObject: {fileID: 0}
  m_PrefabInstance: {fileID: 0}
  m_PrefabAsset: {fileID: 0}
  serializedVersion: 6
  m_Component:
  - component: {fileID: 8528184423665178521}
  - component: {fileID: 6751223460510618596}
  m_Layer: 0
  m_Name: AiAgentController
  m_TagString: Untagged
  m_Icon: {fileID: 0}
  m_NavMeshLayer: 0
  m_StaticEditorFlags: 0
  m_IsActive: 1
--- !u!4 &8528184423665178521
Transform:
  m_ObjectHideFlags: 0
  m_CorrespondingSourceObject: {fileID: 0}
  m_PrefabInstance: {fileID: 0}
  m_PrefabAsset: {fileID: 0}
  m_GameObject: {fileID: 1294909988073648879}
  serializedVersion: 2
  m_LocalRotation: {x: -0, y: -0, z: -0, w: 1}
  m_LocalPosition: {x: 0, y: 0, z: 0}
  m_LocalScale: {x: 1, y: 1, z: 1}
  m_ConstrainProportionsScale: 0
  m_Children: []
  m_Father: {fileID: 0}
  m_LocalEulerAnglesHint: {x: 0, y: 0, z: 0}
--- !u!114 &6751223460510618596
MonoBehaviour:
  m_ObjectHideFlags: 0
  m_CorrespondingSourceObject: {fileID: 0}
  m_PrefabInstance: {fileID: 0}
  m_PrefabAsset: {fileID: 0}
  m_GameObject: {fileID: 1294909988073648879}
  m_Enabled: 1
  m_EditorHideFlags: 0
  m_Script: {fileID: 11500000, guid: 95842c5e270145648b251b76b6200b68, type: 3}
  m_Name: 
  m_EditorClassIdentifier: 
  initialState: 1
  config: {fileID: 11400000, guid: e2634844ed971ca4f93a2857817de773, type: 2}
  patrolPoints:
  - {fileID: 0}
  - {fileID: 0}
  - {fileID: 0}
  animator: {fileID: 0}
  sounds: {fileID: 0}
  agentRb: {fileID: 0}
  agentTransform: {fileID: 0}
  agentSeeker: {fileID: 0}
  playerTransform: {fileID: 0}
  reachedEndOfPath: 0
  currentWaypoint: 0
  currentPointIndex: 0
  once: 0
  walk: 0
