Library\Bee\artifacts\mvdfrm\UnityEngine.TestRunner.ref.dll_E55D0F7C63F01D9E.mvfrm
Library\Bee\artifacts\mvdfrm\UnityEditor.Graphs.dll_B92B33332BEC1040.mvfrm
Library\Bee\artifacts\mvdfrm\UnityEditor.CoreModule.dll_DA02D80E6AFF140E.mvfrm
Library\Bee\artifacts\mvdfrm\UnityEditor.DeviceSimulatorModule.dll_ECFBCDA95EE79913.mvfrm
Library\Bee\artifacts\mvdfrm\UnityEditor.DiagnosticsModule.dll_B6CDB62337FACEA1.mvfrm
Library\Bee\artifacts\mvdfrm\UnityEditor.dll_3AB43E29CD161827.mvfrm
Library\Bee\artifacts\mvdfrm\UnityEditor.EditorToolbarModule.dll_F881584141F4E283.mvfrm
Library\Bee\artifacts\mvdfrm\UnityEditor.GraphViewModule.dll_E341B1129FB6E858.mvfrm
Library\Bee\artifacts\mvdfrm\UnityEditor.PresetsUIModule.dll_9EA7E9F4A20F405D.mvfrm
Library\Bee\artifacts\mvdfrm\UnityEditor.QuickSearchModule.dll_41DD373090D1CAFA.mvfrm
Library\Bee\artifacts\mvdfrm\UnityEditor.SceneTemplateModule.dll_1C20C8FF40E18CBB.mvfrm
Library\Bee\artifacts\mvdfrm\UnityEditor.SceneViewModule.dll_21F1941A94D9B566.mvfrm
Library\Bee\artifacts\mvdfrm\UnityEditor.TextCoreFontEngineModule.dll_3D488A79CBF43DCC.mvfrm
Library\Bee\artifacts\mvdfrm\UnityEditor.TextCoreTextEngineModule.dll_8530C0EB5B77F6EA.mvfrm
Library\Bee\artifacts\mvdfrm\UnityEditor.UIBuilderModule.dll_37CA5E2F126F618C.mvfrm
Library\Bee\artifacts\mvdfrm\UnityEditor.UIElementsModule.dll_FECDB685E161948A.mvfrm
Library\Bee\artifacts\mvdfrm\UnityEditor.UIElementsSamplesModule.dll_34B5A7192A34E383.mvfrm
Library\Bee\artifacts\mvdfrm\UnityEditor.UnityConnectModule.dll_EFF0BEDD446FC9C4.mvfrm
Library\Bee\artifacts\mvdfrm\UnityEngine.AccessibilityModule.dll_4EC634964157B458.mvfrm
Library\Bee\artifacts\mvdfrm\UnityEngine.AIModule.dll_AB91A837D87DECA2.mvfrm
Library\Bee\artifacts\mvdfrm\UnityEngine.AndroidJNIModule.dll_7D169F592A810360.mvfrm
Library\Bee\artifacts\mvdfrm\UnityEngine.AnimationModule.dll_B1C72D3B7A13BCFE.mvfrm
Library\Bee\artifacts\mvdfrm\UnityEngine.ARModule.dll_65046D3B359B4B6B.mvfrm
Library\Bee\artifacts\mvdfrm\UnityEngine.AssetBundleModule.dll_85C66A21F3387FEC.mvfrm
Library\Bee\artifacts\mvdfrm\UnityEngine.AudioModule.dll_43E88EA7A2D0AE70.mvfrm
Library\Bee\artifacts\mvdfrm\UnityEngine.ClothModule.dll_AAD0EBA27CED8D54.mvfrm
Library\Bee\artifacts\mvdfrm\UnityEngine.ClusterInputModule.dll_6F8D33F2F5F79C8A.mvfrm
Library\Bee\artifacts\mvdfrm\UnityEngine.ClusterRendererModule.dll_F2A8901ACEA2A697.mvfrm
Library\Bee\artifacts\mvdfrm\UnityEngine.ContentLoadModule.dll_1EDCC362C1BB27D9.mvfrm
Library\Bee\artifacts\mvdfrm\UnityEngine.CoreModule.dll_FD23AB6113047F39.mvfrm
Library\Bee\artifacts\mvdfrm\UnityEngine.CrashReportingModule.dll_48785EB0CF785071.mvfrm
Library\Bee\artifacts\mvdfrm\UnityEngine.DirectorModule.dll_9F4B30EA5AC65396.mvfrm
Library\Bee\artifacts\mvdfrm\UnityEngine.dll_6D5885022B89A50C.mvfrm
Library\Bee\artifacts\mvdfrm\UnityEngine.DSPGraphModule.dll_A49C9253CD2724B7.mvfrm
Library\Bee\artifacts\mvdfrm\UnityEngine.GameCenterModule.dll_A763E973F0C1F451.mvfrm
Library\Bee\artifacts\mvdfrm\UnityEngine.GIModule.dll_43CDF145742CD4BC.mvfrm
Library\Bee\artifacts\mvdfrm\UnityEngine.GridModule.dll_DA94C74F2B591530.mvfrm
Library\Bee\artifacts\mvdfrm\UnityEngine.HotReloadModule.dll_330FEB415546D880.mvfrm
Library\Bee\artifacts\mvdfrm\UnityEngine.ImageConversionModule.dll_5E9A8DCB50C75E8B.mvfrm
Library\Bee\artifacts\mvdfrm\UnityEngine.IMGUIModule.dll_7C482E0E69024251.mvfrm
Library\Bee\artifacts\mvdfrm\UnityEngine.InputLegacyModule.dll_170B85408B2A35DD.mvfrm
Library\Bee\artifacts\mvdfrm\UnityEngine.InputModule.dll_AA5E56581908D314.mvfrm
Library\Bee\artifacts\mvdfrm\UnityEngine.JSONSerializeModule.dll_AEDDBDD2409314E2.mvfrm
Library\Bee\artifacts\mvdfrm\UnityEngine.LocalizationModule.dll_ADD9FE458D738F83.mvfrm
Library\Bee\artifacts\mvdfrm\UnityEngine.NVIDIAModule.dll_91AF3C799AF5C4C5.mvfrm
Library\Bee\artifacts\mvdfrm\UnityEngine.ParticleSystemModule.dll_9B8AA7FD3D89DBFF.mvfrm
Library\Bee\artifacts\mvdfrm\UnityEngine.PerformanceReportingModule.dll_89C1FFBB31078CF8.mvfrm
Library\Bee\artifacts\mvdfrm\UnityEngine.Physics2DModule.dll_FE6D1D2C1B10B493.mvfrm
Library\Bee\artifacts\mvdfrm\UnityEngine.PhysicsModule.dll_5B12D452327F8741.mvfrm
Library\Bee\artifacts\mvdfrm\UnityEngine.ProfilerModule.dll_D1916A20F41FDAA3.mvfrm
Library\Bee\artifacts\mvdfrm\UnityEngine.PropertiesModule.dll_D49F28B263AD588D.mvfrm
Library\Bee\artifacts\mvdfrm\UnityEngine.RuntimeInitializeOnLoadManagerInitializerModule.dll_6BD864C7ACBFCB5C.mvfrm
Library\Bee\artifacts\mvdfrm\UnityEngine.ScreenCaptureModule.dll_C8C56B5754FF4144.mvfrm
Library\Bee\artifacts\mvdfrm\UnityEngine.SharedInternalsModule.dll_E2ABCCA0C7F559DB.mvfrm
Library\Bee\artifacts\mvdfrm\UnityEngine.SpriteMaskModule.dll_90905C04123189CB.mvfrm
Library\Bee\artifacts\mvdfrm\UnityEngine.SpriteShapeModule.dll_9F27977CA8DAB7F6.mvfrm
Library\Bee\artifacts\mvdfrm\UnityEngine.StreamingModule.dll_665C1A8BC99B743C.mvfrm
Library\Bee\artifacts\mvdfrm\UnityEngine.SubstanceModule.dll_43072ED514EE724A.mvfrm
Library\Bee\artifacts\mvdfrm\UnityEngine.SubsystemsModule.dll_FB3DC265E07971DE.mvfrm
Library\Bee\artifacts\mvdfrm\UnityEngine.TerrainModule.dll_75594FC1083DD02F.mvfrm
Library\Bee\artifacts\mvdfrm\UnityEngine.TerrainPhysicsModule.dll_9C0550D056CCD68C.mvfrm
Library\Bee\artifacts\mvdfrm\UnityEngine.TextCoreFontEngineModule.dll_BBA805CCDEF1FC97.mvfrm
Library\Bee\artifacts\mvdfrm\UnityEngine.TextCoreTextEngineModule.dll_03903C3E6E75B5B5.mvfrm
Library\Bee\artifacts\mvdfrm\UnityEngine.TextRenderingModule.dll_F204DD620C36C139.mvfrm
Library\Bee\artifacts\mvdfrm\UnityEngine.TilemapModule.dll_1455B7421FFAB138.mvfrm
Library\Bee\artifacts\mvdfrm\UnityEngine.TLSModule.dll_F66B0B7D7AE89FD5.mvfrm
Library\Bee\artifacts\mvdfrm\UnityEngine.UIElementsModule.dll_FF7C23CDE3A5ADD5.mvfrm
Library\Bee\artifacts\mvdfrm\UnityEngine.UIModule.dll_A705466534C4F24E.mvfrm
Library\Bee\artifacts\mvdfrm\UnityEngine.UmbraModule.dll_BEBD3AC02FF759E3.mvfrm
Library\Bee\artifacts\mvdfrm\UnityEngine.UnityAnalyticsCommonModule.dll_2500BCFF4AF02B56.mvfrm
Library\Bee\artifacts\mvdfrm\UnityEngine.UnityAnalyticsModule.dll_BB2A18C6E9B12DFB.mvfrm
Library\Bee\artifacts\mvdfrm\UnityEngine.UnityConnectModule.dll_DD5042EC3EF7CA6F.mvfrm
Library\Bee\artifacts\mvdfrm\UnityEngine.UnityCurlModule.dll_E4E3CE6CEA27AEEB.mvfrm
Library\Bee\artifacts\mvdfrm\UnityEngine.UnityTestProtocolModule.dll_F0785D0B843038D9.mvfrm
Library\Bee\artifacts\mvdfrm\UnityEngine.UnityWebRequestAssetBundleModule.dll_AC3864480892D50C.mvfrm
Library\Bee\artifacts\mvdfrm\UnityEngine.UnityWebRequestAudioModule.dll_01BE5399B7725790.mvfrm
Library\Bee\artifacts\mvdfrm\UnityEngine.UnityWebRequestModule.dll_703995755BBBF90A.mvfrm
Library\Bee\artifacts\mvdfrm\UnityEngine.UnityWebRequestTextureModule.dll_43DFD39ADC2A7F65.mvfrm
Library\Bee\artifacts\mvdfrm\UnityEngine.UnityWebRequestWWWModule.dll_CE52819A5E357221.mvfrm
Library\Bee\artifacts\mvdfrm\UnityEngine.VehiclesModule.dll_170E2A69D4F02331.mvfrm
Library\Bee\artifacts\mvdfrm\UnityEngine.VFXModule.dll_7749A3EC51560942.mvfrm
Library\Bee\artifacts\mvdfrm\UnityEngine.VideoModule.dll_68F213126562CA15.mvfrm
Library\Bee\artifacts\mvdfrm\UnityEngine.VirtualTexturingModule.dll_B3F6315ED7928C97.mvfrm
Library\Bee\artifacts\mvdfrm\UnityEngine.VRModule.dll_F9D76CEAD67F77C6.mvfrm
Library\Bee\artifacts\mvdfrm\UnityEngine.WindModule.dll_73728689A43AFDA2.mvfrm
Library\Bee\artifacts\mvdfrm\UnityEngine.XRModule.dll_2C962FEF5FB9C524.mvfrm
Library\Bee\artifacts\mvdfrm\Unity.Android.Gradle.dll_854DFCB54D5B64F6.mvfrm
Library\Bee\artifacts\mvdfrm\Unity.Android.GradleProject.dll_5B9467DA952CEC1F.mvfrm
Library\Bee\artifacts\mvdfrm\Unity.Android.Types.dll_B081429DE30DE3A6.mvfrm
Library\Bee\artifacts\mvdfrm\UnityEditor.Android.Extensions.dll_6E53C62AD7D6C6F6.mvfrm
Library\Bee\artifacts\mvdfrm\UnityEditor.WindowsStandalone.Extensions.dll_C963D9152F243C72.mvfrm